<?xml version="1.0" encoding="UTF-8"?>
<svg xmlns="http://www.w3.org/2000/svg" xmlns:xlink="http://www.w3.org/1999/xlink" width="612pt" height="792pt" viewBox="0 0 612 792" version="1.1">
<defs>
<g>
<symbol overflow="visible" id="glyph0-0">
<path style="stroke:none;" d="M 5.28125 -6.984375 L 5.28125 0 L 0.234375 0 L 0.234375 -6.984375 Z M 4.8125 -0.4375 L 4.8125 -6.546875 L 0.703125 -6.546875 L 0.703125 -0.4375 Z M 4.140625 -4.609375 C 4.140625 -4.398438 4.109375 -4.210938 4.046875 -4.046875 C 3.984375 -3.878906 3.894531 -3.738281 3.78125 -3.625 C 3.664062 -3.507812 3.53125 -3.421875 3.375 -3.359375 C 3.21875 -3.296875 3.050781 -3.257812 2.875 -3.25 L 2.84375 -2.421875 C 2.84375 -2.390625 2.816406 -2.363281 2.765625 -2.34375 C 2.710938 -2.332031 2.640625 -2.328125 2.546875 -2.328125 C 2.484375 -2.328125 2.4375 -2.328125 2.40625 -2.328125 C 2.375 -2.335938 2.34375 -2.34375 2.3125 -2.34375 C 2.289062 -2.351562 2.273438 -2.363281 2.265625 -2.375 C 2.253906 -2.382812 2.25 -2.398438 2.25 -2.421875 L 2.21875 -3.421875 C 2.21875 -3.523438 2.238281 -3.597656 2.28125 -3.640625 C 2.332031 -3.691406 2.398438 -3.71875 2.484375 -3.71875 L 2.59375 -3.71875 C 2.75 -3.71875 2.878906 -3.738281 2.984375 -3.78125 C 3.097656 -3.820312 3.1875 -3.878906 3.25 -3.953125 C 3.320312 -4.035156 3.367188 -4.128906 3.390625 -4.234375 C 3.421875 -4.335938 3.4375 -4.445312 3.4375 -4.5625 C 3.4375 -4.832031 3.363281 -5.039062 3.21875 -5.1875 C 3.070312 -5.34375 2.832031 -5.421875 2.5 -5.421875 C 2.363281 -5.421875 2.242188 -5.40625 2.140625 -5.375 C 2.035156 -5.351562 1.941406 -5.328125 1.859375 -5.296875 C 1.773438 -5.265625 1.707031 -5.234375 1.65625 -5.203125 C 1.601562 -5.171875 1.5625 -5.15625 1.53125 -5.15625 C 1.519531 -5.15625 1.507812 -5.15625 1.5 -5.15625 C 1.488281 -5.164062 1.476562 -5.179688 1.46875 -5.203125 C 1.457031 -5.222656 1.445312 -5.25 1.4375 -5.28125 C 1.4375 -5.320312 1.4375 -5.367188 1.4375 -5.421875 C 1.4375 -5.484375 1.441406 -5.535156 1.453125 -5.578125 C 1.460938 -5.617188 1.476562 -5.65625 1.5 -5.6875 C 1.53125 -5.707031 1.582031 -5.734375 1.65625 -5.765625 C 1.726562 -5.796875 1.8125 -5.828125 1.90625 -5.859375 C 2.007812 -5.890625 2.117188 -5.914062 2.234375 -5.9375 C 2.347656 -5.957031 2.46875 -5.96875 2.59375 -5.96875 C 2.863281 -5.96875 3.09375 -5.929688 3.28125 -5.859375 C 3.476562 -5.785156 3.640625 -5.6875 3.765625 -5.5625 C 3.890625 -5.445312 3.984375 -5.304688 4.046875 -5.140625 C 4.109375 -4.972656 4.140625 -4.796875 4.140625 -4.609375 Z M 2.96875 -1.46875 C 2.96875 -1.394531 2.957031 -1.332031 2.9375 -1.28125 C 2.925781 -1.226562 2.90625 -1.1875 2.875 -1.15625 C 2.84375 -1.125 2.800781 -1.097656 2.75 -1.078125 C 2.695312 -1.066406 2.632812 -1.0625 2.5625 -1.0625 C 2.476562 -1.0625 2.410156 -1.066406 2.359375 -1.078125 C 2.304688 -1.097656 2.265625 -1.125 2.234375 -1.15625 C 2.203125 -1.1875 2.175781 -1.226562 2.15625 -1.28125 C 2.144531 -1.332031 2.140625 -1.394531 2.140625 -1.46875 C 2.140625 -1.539062 2.144531 -1.601562 2.15625 -1.65625 C 2.175781 -1.71875 2.203125 -1.765625 2.234375 -1.796875 C 2.265625 -1.828125 2.304688 -1.847656 2.359375 -1.859375 C 2.410156 -1.867188 2.476562 -1.875 2.5625 -1.875 C 2.632812 -1.875 2.695312 -1.867188 2.75 -1.859375 C 2.800781 -1.847656 2.84375 -1.828125 2.875 -1.796875 C 2.90625 -1.765625 2.925781 -1.71875 2.9375 -1.65625 C 2.957031 -1.601562 2.96875 -1.539062 2.96875 -1.46875 Z M 0 2.140625 Z M 0 2.140625 "/>
</symbol>
<symbol overflow="visible" id="glyph0-1">
<path style="stroke:none;" d=""/>
</symbol>
<symbol overflow="visible" id="glyph1-0">
<path style="stroke:none;" d="M 3.328125 -4.390625 L 3.328125 0 L 0.15625 0 L 0.15625 -4.390625 Z M 3.03125 -0.28125 L 3.03125 -4.125 L 0.4375 -4.125 L 0.4375 -0.28125 Z M 2.609375 -2.90625 C 2.609375 -2.769531 2.585938 -2.648438 2.546875 -2.546875 C 2.503906 -2.441406 2.445312 -2.351562 2.375 -2.28125 C 2.300781 -2.207031 2.21875 -2.148438 2.125 -2.109375 C 2.03125 -2.066406 1.925781 -2.046875 1.8125 -2.046875 L 1.796875 -1.53125 C 1.796875 -1.507812 1.773438 -1.492188 1.734375 -1.484375 C 1.703125 -1.472656 1.65625 -1.46875 1.59375 -1.46875 C 1.5625 -1.46875 1.535156 -1.46875 1.515625 -1.46875 C 1.492188 -1.46875 1.472656 -1.46875 1.453125 -1.46875 C 1.441406 -1.476562 1.429688 -1.484375 1.421875 -1.484375 C 1.421875 -1.492188 1.421875 -1.507812 1.421875 -1.53125 L 1.40625 -2.15625 C 1.394531 -2.21875 1.40625 -2.257812 1.4375 -2.28125 C 1.46875 -2.3125 1.507812 -2.328125 1.5625 -2.328125 L 1.625 -2.328125 C 1.726562 -2.328125 1.8125 -2.34375 1.875 -2.375 C 1.945312 -2.40625 2.003906 -2.441406 2.046875 -2.484375 C 2.085938 -2.535156 2.117188 -2.59375 2.140625 -2.65625 C 2.160156 -2.726562 2.171875 -2.800781 2.171875 -2.875 C 2.171875 -3.039062 2.125 -3.171875 2.03125 -3.265625 C 1.9375 -3.367188 1.785156 -3.421875 1.578125 -3.421875 C 1.492188 -3.421875 1.414062 -3.410156 1.34375 -3.390625 C 1.28125 -3.367188 1.222656 -3.347656 1.171875 -3.328125 C 1.117188 -3.304688 1.070312 -3.285156 1.03125 -3.265625 C 1 -3.253906 0.976562 -3.25 0.96875 -3.25 C 0.957031 -3.25 0.945312 -3.25 0.9375 -3.25 C 0.9375 -3.257812 0.929688 -3.269531 0.921875 -3.28125 C 0.910156 -3.289062 0.90625 -3.304688 0.90625 -3.328125 C 0.90625 -3.347656 0.90625 -3.378906 0.90625 -3.421875 C 0.90625 -3.453125 0.90625 -3.476562 0.90625 -3.5 C 0.914062 -3.53125 0.929688 -3.554688 0.953125 -3.578125 C 0.960938 -3.585938 0.988281 -3.601562 1.03125 -3.625 C 1.082031 -3.644531 1.140625 -3.664062 1.203125 -3.6875 C 1.265625 -3.707031 1.332031 -3.722656 1.40625 -3.734375 C 1.476562 -3.753906 1.554688 -3.765625 1.640625 -3.765625 C 1.804688 -3.765625 1.945312 -3.738281 2.0625 -3.6875 C 2.1875 -3.644531 2.285156 -3.582031 2.359375 -3.5 C 2.441406 -3.425781 2.503906 -3.335938 2.546875 -3.234375 C 2.585938 -3.128906 2.609375 -3.019531 2.609375 -2.90625 Z M 1.859375 -0.921875 C 1.859375 -0.878906 1.851562 -0.84375 1.84375 -0.8125 C 1.84375 -0.78125 1.832031 -0.753906 1.8125 -0.734375 C 1.789062 -0.710938 1.765625 -0.695312 1.734375 -0.6875 C 1.703125 -0.675781 1.660156 -0.671875 1.609375 -0.671875 C 1.554688 -0.671875 1.515625 -0.675781 1.484375 -0.6875 C 1.453125 -0.695312 1.425781 -0.710938 1.40625 -0.734375 C 1.382812 -0.753906 1.367188 -0.78125 1.359375 -0.8125 C 1.347656 -0.84375 1.34375 -0.878906 1.34375 -0.921875 C 1.34375 -0.972656 1.347656 -1.015625 1.359375 -1.046875 C 1.367188 -1.078125 1.382812 -1.101562 1.40625 -1.125 C 1.425781 -1.144531 1.453125 -1.160156 1.484375 -1.171875 C 1.515625 -1.179688 1.554688 -1.1875 1.609375 -1.1875 C 1.660156 -1.1875 1.703125 -1.179688 1.734375 -1.171875 C 1.765625 -1.160156 1.789062 -1.144531 1.8125 -1.125 C 1.832031 -1.101562 1.84375 -1.078125 1.84375 -1.046875 C 1.851562 -1.015625 1.859375 -0.972656 1.859375 -0.921875 Z M 0 1.34375 Z M 0 1.34375 "/>
</symbol>
<symbol overflow="visible" id="glyph1-1">
<path style="stroke:none;" d="M 3.515625 -0.09375 C 3.515625 -0.0703125 3.507812 -0.0507812 3.5 -0.03125 C 3.5 -0.0195312 3.484375 -0.0078125 3.453125 0 C 3.429688 0 3.398438 0 3.359375 0 C 3.316406 0.0078125 3.265625 0.015625 3.203125 0.015625 C 3.140625 0.015625 3.085938 0.0078125 3.046875 0 C 3.015625 0 2.988281 -0.00390625 2.96875 -0.015625 C 2.945312 -0.0234375 2.925781 -0.0351562 2.90625 -0.046875 C 2.894531 -0.0664062 2.882812 -0.09375 2.875 -0.125 L 2.484375 -1.15625 C 2.429688 -1.269531 2.378906 -1.375 2.328125 -1.46875 C 2.273438 -1.570312 2.210938 -1.660156 2.140625 -1.734375 C 2.078125 -1.804688 2 -1.859375 1.90625 -1.890625 C 1.8125 -1.929688 1.695312 -1.953125 1.5625 -1.953125 L 1.171875 -1.953125 L 1.171875 -0.09375 C 1.171875 -0.0703125 1.164062 -0.0507812 1.15625 -0.03125 C 1.144531 -0.0195312 1.128906 -0.0078125 1.109375 0 C 1.085938 0 1.054688 0 1.015625 0 C 0.972656 0.0078125 0.925781 0.015625 0.875 0.015625 C 0.820312 0.015625 0.773438 0.0078125 0.734375 0 C 0.691406 0 0.660156 0 0.640625 0 C 0.617188 -0.0078125 0.601562 -0.0195312 0.59375 -0.03125 C 0.582031 -0.0507812 0.578125 -0.0703125 0.578125 -0.09375 L 0.578125 -4.15625 C 0.578125 -4.238281 0.597656 -4.296875 0.640625 -4.328125 C 0.691406 -4.367188 0.742188 -4.390625 0.796875 -4.390625 L 1.734375 -4.390625 C 1.847656 -4.390625 1.941406 -4.382812 2.015625 -4.375 C 2.085938 -4.375 2.148438 -4.367188 2.203125 -4.359375 C 2.378906 -4.335938 2.53125 -4.289062 2.65625 -4.21875 C 2.789062 -4.15625 2.898438 -4.078125 2.984375 -3.984375 C 3.078125 -3.890625 3.144531 -3.78125 3.1875 -3.65625 C 3.226562 -3.53125 3.25 -3.390625 3.25 -3.234375 C 3.25 -3.085938 3.226562 -2.957031 3.1875 -2.84375 C 3.15625 -2.726562 3.097656 -2.625 3.015625 -2.53125 C 2.941406 -2.4375 2.851562 -2.359375 2.75 -2.296875 C 2.644531 -2.234375 2.53125 -2.175781 2.40625 -2.125 C 2.476562 -2.09375 2.539062 -2.050781 2.59375 -2 C 2.65625 -1.957031 2.710938 -1.898438 2.765625 -1.828125 C 2.816406 -1.765625 2.863281 -1.6875 2.90625 -1.59375 C 2.957031 -1.507812 3.003906 -1.410156 3.046875 -1.296875 L 3.4375 -0.34375 C 3.46875 -0.257812 3.488281 -0.195312 3.5 -0.15625 C 3.507812 -0.125 3.515625 -0.101562 3.515625 -0.09375 Z M 2.640625 -3.171875 C 2.640625 -3.347656 2.597656 -3.492188 2.515625 -3.609375 C 2.441406 -3.722656 2.3125 -3.804688 2.125 -3.859375 C 2.070312 -3.878906 2.007812 -3.890625 1.9375 -3.890625 C 1.863281 -3.898438 1.769531 -3.90625 1.65625 -3.90625 L 1.171875 -3.90625 L 1.171875 -2.4375 L 1.734375 -2.4375 C 1.890625 -2.4375 2.023438 -2.453125 2.140625 -2.484375 C 2.253906 -2.523438 2.347656 -2.578125 2.421875 -2.640625 C 2.492188 -2.710938 2.546875 -2.789062 2.578125 -2.875 C 2.617188 -2.96875 2.640625 -3.066406 2.640625 -3.171875 Z M 2.640625 -3.171875 "/>
</symbol>
<symbol overflow="visible" id="glyph1-2">
<path style="stroke:none;" d="M 3.109375 -1.25 C 3.109375 -1.050781 3.070312 -0.867188 3 -0.703125 C 2.925781 -0.546875 2.820312 -0.410156 2.6875 -0.296875 C 2.5625 -0.179688 2.398438 -0.09375 2.203125 -0.03125 C 2.015625 0.03125 1.800781 0.0625 1.5625 0.0625 C 1.414062 0.0625 1.273438 0.0507812 1.140625 0.03125 C 1.015625 0.0078125 0.898438 -0.015625 0.796875 -0.046875 C 0.703125 -0.0859375 0.617188 -0.125 0.546875 -0.15625 C 0.484375 -0.1875 0.441406 -0.210938 0.421875 -0.234375 C 0.410156 -0.253906 0.398438 -0.269531 0.390625 -0.28125 C 0.378906 -0.300781 0.367188 -0.320312 0.359375 -0.34375 C 0.359375 -0.363281 0.351562 -0.390625 0.34375 -0.421875 C 0.34375 -0.453125 0.34375 -0.492188 0.34375 -0.546875 C 0.34375 -0.628906 0.347656 -0.6875 0.359375 -0.71875 C 0.378906 -0.75 0.40625 -0.765625 0.4375 -0.765625 C 0.457031 -0.765625 0.5 -0.742188 0.5625 -0.703125 C 0.625 -0.671875 0.703125 -0.632812 0.796875 -0.59375 C 0.890625 -0.550781 1 -0.507812 1.125 -0.46875 C 1.25 -0.4375 1.390625 -0.421875 1.546875 -0.421875 C 1.691406 -0.421875 1.820312 -0.4375 1.9375 -0.46875 C 2.050781 -0.507812 2.144531 -0.566406 2.21875 -0.640625 C 2.289062 -0.710938 2.347656 -0.796875 2.390625 -0.890625 C 2.429688 -0.984375 2.453125 -1.085938 2.453125 -1.203125 C 2.453125 -1.328125 2.425781 -1.4375 2.375 -1.53125 C 2.332031 -1.632812 2.265625 -1.722656 2.171875 -1.796875 C 2.078125 -1.867188 1.957031 -1.921875 1.8125 -1.953125 C 1.675781 -1.992188 1.519531 -2.015625 1.34375 -2.015625 L 0.9375 -2.015625 C 0.914062 -2.015625 0.894531 -2.019531 0.875 -2.03125 C 0.863281 -2.039062 0.847656 -2.050781 0.828125 -2.0625 C 0.816406 -2.082031 0.804688 -2.109375 0.796875 -2.140625 C 0.796875 -2.171875 0.796875 -2.207031 0.796875 -2.25 C 0.796875 -2.300781 0.796875 -2.335938 0.796875 -2.359375 C 0.804688 -2.390625 0.816406 -2.410156 0.828125 -2.421875 C 0.847656 -2.441406 0.863281 -2.457031 0.875 -2.46875 C 0.894531 -2.476562 0.914062 -2.484375 0.9375 -2.484375 L 1.3125 -2.484375 C 1.457031 -2.484375 1.585938 -2.5 1.703125 -2.53125 C 1.828125 -2.570312 1.929688 -2.628906 2.015625 -2.703125 C 2.097656 -2.773438 2.160156 -2.859375 2.203125 -2.953125 C 2.253906 -3.054688 2.28125 -3.171875 2.28125 -3.296875 C 2.28125 -3.390625 2.265625 -3.476562 2.234375 -3.5625 C 2.203125 -3.644531 2.15625 -3.71875 2.09375 -3.78125 C 2.039062 -3.84375 1.96875 -3.890625 1.875 -3.921875 C 1.78125 -3.953125 1.675781 -3.96875 1.5625 -3.96875 C 1.425781 -3.96875 1.300781 -3.945312 1.1875 -3.90625 C 1.082031 -3.875 0.984375 -3.832031 0.890625 -3.78125 C 0.804688 -3.738281 0.734375 -3.695312 0.671875 -3.65625 C 0.617188 -3.625 0.582031 -3.609375 0.5625 -3.609375 C 0.550781 -3.609375 0.535156 -3.609375 0.515625 -3.609375 C 0.503906 -3.617188 0.492188 -3.628906 0.484375 -3.640625 C 0.484375 -3.660156 0.476562 -3.6875 0.46875 -3.71875 C 0.46875 -3.75 0.46875 -3.789062 0.46875 -3.84375 C 0.46875 -3.875 0.46875 -3.898438 0.46875 -3.921875 C 0.476562 -3.953125 0.484375 -3.972656 0.484375 -3.984375 C 0.492188 -4.003906 0.503906 -4.023438 0.515625 -4.046875 C 0.523438 -4.066406 0.539062 -4.085938 0.5625 -4.109375 C 0.582031 -4.128906 0.625 -4.15625 0.6875 -4.1875 C 0.75 -4.226562 0.828125 -4.269531 0.921875 -4.3125 C 1.023438 -4.351562 1.140625 -4.382812 1.265625 -4.40625 C 1.390625 -4.4375 1.523438 -4.453125 1.671875 -4.453125 C 1.867188 -4.453125 2.046875 -4.425781 2.203125 -4.375 C 2.359375 -4.320312 2.488281 -4.25 2.59375 -4.15625 C 2.695312 -4.0625 2.773438 -3.945312 2.828125 -3.8125 C 2.878906 -3.6875 2.90625 -3.539062 2.90625 -3.375 C 2.90625 -3.238281 2.882812 -3.109375 2.84375 -2.984375 C 2.8125 -2.867188 2.757812 -2.765625 2.6875 -2.671875 C 2.613281 -2.585938 2.523438 -2.507812 2.421875 -2.4375 C 2.328125 -2.375 2.210938 -2.332031 2.078125 -2.3125 L 2.078125 -2.296875 C 2.222656 -2.285156 2.359375 -2.25 2.484375 -2.1875 C 2.609375 -2.125 2.71875 -2.046875 2.8125 -1.953125 C 2.90625 -1.867188 2.976562 -1.765625 3.03125 -1.640625 C 3.082031 -1.523438 3.109375 -1.394531 3.109375 -1.25 Z M 3.109375 -1.25 "/>
</symbol>
<symbol overflow="visible" id="glyph1-3">
<path style="stroke:none;" d="M 3.25 -1.421875 C 3.25 -1.234375 3.21875 -1.046875 3.15625 -0.859375 C 3.101562 -0.679688 3.015625 -0.523438 2.890625 -0.390625 C 2.765625 -0.253906 2.609375 -0.144531 2.421875 -0.0625 C 2.234375 0.0195312 2.015625 0.0625 1.765625 0.0625 C 1.578125 0.0625 1.410156 0.0390625 1.265625 0 C 1.128906 -0.0507812 1.007812 -0.117188 0.90625 -0.203125 C 0.800781 -0.285156 0.710938 -0.382812 0.640625 -0.5 C 0.578125 -0.625 0.523438 -0.765625 0.484375 -0.921875 C 0.441406 -1.078125 0.410156 -1.25 0.390625 -1.4375 C 0.367188 -1.625 0.359375 -1.820312 0.359375 -2.03125 C 0.359375 -2.21875 0.367188 -2.40625 0.390625 -2.59375 C 0.410156 -2.789062 0.445312 -2.976562 0.5 -3.15625 C 0.550781 -3.332031 0.617188 -3.5 0.703125 -3.65625 C 0.796875 -3.820312 0.910156 -3.960938 1.046875 -4.078125 C 1.179688 -4.191406 1.34375 -4.28125 1.53125 -4.34375 C 1.71875 -4.414062 1.9375 -4.453125 2.1875 -4.453125 C 2.269531 -4.453125 2.351562 -4.445312 2.4375 -4.4375 C 2.53125 -4.425781 2.613281 -4.410156 2.6875 -4.390625 C 2.757812 -4.378906 2.816406 -4.363281 2.859375 -4.34375 C 2.910156 -4.320312 2.941406 -4.304688 2.953125 -4.296875 C 2.972656 -4.285156 2.988281 -4.269531 3 -4.25 C 3.007812 -4.238281 3.015625 -4.222656 3.015625 -4.203125 C 3.023438 -4.179688 3.03125 -4.160156 3.03125 -4.140625 C 3.03125 -4.117188 3.03125 -4.09375 3.03125 -4.0625 C 3.03125 -4.019531 3.03125 -3.984375 3.03125 -3.953125 C 3.03125 -3.929688 3.023438 -3.910156 3.015625 -3.890625 C 3.003906 -3.867188 2.992188 -3.851562 2.984375 -3.84375 C 2.972656 -3.84375 2.957031 -3.84375 2.9375 -3.84375 C 2.914062 -3.84375 2.878906 -3.847656 2.828125 -3.859375 C 2.785156 -3.878906 2.734375 -3.894531 2.671875 -3.90625 C 2.617188 -3.925781 2.546875 -3.941406 2.453125 -3.953125 C 2.367188 -3.972656 2.269531 -3.984375 2.15625 -3.984375 C 1.945312 -3.984375 1.765625 -3.941406 1.609375 -3.859375 C 1.453125 -3.773438 1.328125 -3.660156 1.234375 -3.515625 C 1.140625 -3.367188 1.066406 -3.195312 1.015625 -3 C 0.972656 -2.8125 0.945312 -2.613281 0.9375 -2.40625 C 1 -2.445312 1.066406 -2.484375 1.140625 -2.515625 C 1.210938 -2.546875 1.289062 -2.570312 1.375 -2.59375 C 1.46875 -2.625 1.5625 -2.648438 1.65625 -2.671875 C 1.757812 -2.691406 1.863281 -2.703125 1.96875 -2.703125 C 2.207031 -2.703125 2.40625 -2.664062 2.5625 -2.59375 C 2.726562 -2.53125 2.863281 -2.441406 2.96875 -2.328125 C 3.070312 -2.210938 3.144531 -2.078125 3.1875 -1.921875 C 3.226562 -1.765625 3.25 -1.597656 3.25 -1.421875 Z M 2.65625 -1.375 C 2.65625 -1.5 2.640625 -1.613281 2.609375 -1.71875 C 2.585938 -1.832031 2.546875 -1.925781 2.484375 -2 C 2.421875 -2.070312 2.335938 -2.128906 2.234375 -2.171875 C 2.140625 -2.210938 2.019531 -2.234375 1.875 -2.234375 C 1.78125 -2.234375 1.691406 -2.222656 1.609375 -2.203125 C 1.523438 -2.191406 1.441406 -2.171875 1.359375 -2.140625 C 1.285156 -2.117188 1.210938 -2.085938 1.140625 -2.046875 C 1.078125 -2.015625 1.015625 -1.984375 0.953125 -1.953125 C 0.953125 -1.648438 0.96875 -1.398438 1 -1.203125 C 1.039062 -1.015625 1.097656 -0.859375 1.171875 -0.734375 C 1.242188 -0.617188 1.332031 -0.535156 1.4375 -0.484375 C 1.539062 -0.429688 1.664062 -0.40625 1.8125 -0.40625 C 1.957031 -0.40625 2.082031 -0.429688 2.1875 -0.484375 C 2.289062 -0.546875 2.378906 -0.617188 2.453125 -0.703125 C 2.523438 -0.796875 2.578125 -0.898438 2.609375 -1.015625 C 2.640625 -1.128906 2.65625 -1.25 2.65625 -1.375 Z M 2.65625 -1.375 "/>
</symbol>
<symbol overflow="visible" id="glyph1-4">
<path style="stroke:none;" d=""/>
</symbol>
<symbol overflow="visible" id="glyph1-5">
<path style="stroke:none;" d="M 3.140625 -2.625 C 3.140625 -2.53125 3.125 -2.460938 3.09375 -2.421875 C 3.070312 -2.390625 3.046875 -2.375 3.015625 -2.375 L 0.4375 -2.375 C 0.40625 -2.375 0.375 -2.390625 0.34375 -2.421875 C 0.320312 -2.460938 0.3125 -2.53125 0.3125 -2.625 C 0.3125 -2.695312 0.320312 -2.753906 0.34375 -2.796875 C 0.375 -2.835938 0.40625 -2.859375 0.4375 -2.859375 L 3.015625 -2.859375 C 3.054688 -2.859375 3.085938 -2.835938 3.109375 -2.796875 C 3.128906 -2.753906 3.140625 -2.695312 3.140625 -2.625 Z M 3.140625 -1.296875 C 3.140625 -1.203125 3.125 -1.140625 3.09375 -1.109375 C 3.070312 -1.078125 3.046875 -1.0625 3.015625 -1.0625 L 0.4375 -1.0625 C 0.40625 -1.0625 0.375 -1.078125 0.34375 -1.109375 C 0.320312 -1.140625 0.3125 -1.203125 0.3125 -1.296875 C 0.3125 -1.378906 0.320312 -1.4375 0.34375 -1.46875 C 0.375 -1.507812 0.40625 -1.53125 0.4375 -1.53125 L 3.015625 -1.53125 C 3.054688 -1.53125 3.085938 -1.507812 3.109375 -1.46875 C 3.128906 -1.4375 3.140625 -1.378906 3.140625 -1.296875 Z M 3.140625 -1.296875 "/>
</symbol>
<symbol overflow="visible" id="glyph1-6">
<path style="stroke:none;" d="M 3.171875 -1.25 C 3.171875 -1.0625 3.132812 -0.894531 3.0625 -0.75 C 2.988281 -0.601562 2.890625 -0.472656 2.765625 -0.359375 C 2.640625 -0.253906 2.484375 -0.171875 2.296875 -0.109375 C 2.117188 -0.046875 1.914062 -0.0078125 1.6875 0 L 1.609375 0.734375 C 1.609375 0.742188 1.601562 0.753906 1.59375 0.765625 C 1.59375 0.785156 1.582031 0.796875 1.5625 0.796875 C 1.550781 0.804688 1.53125 0.8125 1.5 0.8125 C 1.46875 0.820312 1.429688 0.828125 1.390625 0.828125 C 1.335938 0.828125 1.296875 0.820312 1.265625 0.8125 C 1.234375 0.8125 1.207031 0.804688 1.1875 0.796875 C 1.175781 0.796875 1.164062 0.785156 1.15625 0.765625 C 1.15625 0.753906 1.15625 0.738281 1.15625 0.71875 L 1.234375 -0.015625 C 1.128906 -0.0234375 1.03125 -0.0390625 0.9375 -0.0625 C 0.84375 -0.0820312 0.757812 -0.101562 0.6875 -0.125 C 0.613281 -0.15625 0.550781 -0.179688 0.5 -0.203125 C 0.445312 -0.234375 0.410156 -0.257812 0.390625 -0.28125 C 0.367188 -0.3125 0.351562 -0.34375 0.34375 -0.375 C 0.332031 -0.414062 0.328125 -0.472656 0.328125 -0.546875 C 0.328125 -0.597656 0.328125 -0.640625 0.328125 -0.671875 C 0.335938 -0.703125 0.347656 -0.726562 0.359375 -0.75 C 0.367188 -0.769531 0.378906 -0.78125 0.390625 -0.78125 C 0.398438 -0.789062 0.414062 -0.796875 0.4375 -0.796875 C 0.46875 -0.796875 0.507812 -0.78125 0.5625 -0.75 C 0.625 -0.71875 0.695312 -0.679688 0.78125 -0.640625 C 0.875 -0.609375 0.984375 -0.570312 1.109375 -0.53125 C 1.234375 -0.5 1.390625 -0.484375 1.578125 -0.484375 C 1.898438 -0.484375 2.144531 -0.546875 2.3125 -0.671875 C 2.476562 -0.796875 2.5625 -0.96875 2.5625 -1.1875 C 2.5625 -1.320312 2.53125 -1.429688 2.46875 -1.515625 C 2.40625 -1.609375 2.320312 -1.6875 2.21875 -1.75 C 2.125 -1.820312 2.007812 -1.878906 1.875 -1.921875 C 1.75 -1.972656 1.617188 -2.019531 1.484375 -2.0625 C 1.359375 -2.113281 1.226562 -2.164062 1.09375 -2.21875 C 0.96875 -2.28125 0.851562 -2.359375 0.75 -2.453125 C 0.65625 -2.546875 0.578125 -2.65625 0.515625 -2.78125 C 0.453125 -2.914062 0.421875 -3.078125 0.421875 -3.265625 C 0.421875 -3.421875 0.445312 -3.5625 0.5 -3.6875 C 0.550781 -3.820312 0.628906 -3.9375 0.734375 -4.03125 C 0.835938 -4.132812 0.96875 -4.21875 1.125 -4.28125 C 1.289062 -4.34375 1.476562 -4.378906 1.6875 -4.390625 L 1.75 -5.078125 C 1.75 -5.085938 1.75 -5.097656 1.75 -5.109375 C 1.757812 -5.128906 1.773438 -5.140625 1.796875 -5.140625 C 1.816406 -5.148438 1.835938 -5.15625 1.859375 -5.15625 C 1.890625 -5.164062 1.925781 -5.171875 1.96875 -5.171875 C 2.019531 -5.171875 2.0625 -5.164062 2.09375 -5.15625 C 2.125 -5.15625 2.148438 -5.148438 2.171875 -5.140625 C 2.191406 -5.128906 2.203125 -5.113281 2.203125 -5.09375 C 2.203125 -5.082031 2.203125 -5.070312 2.203125 -5.0625 L 2.140625 -4.375 C 2.203125 -4.375 2.269531 -4.363281 2.34375 -4.34375 C 2.414062 -4.320312 2.484375 -4.300781 2.546875 -4.28125 C 2.617188 -4.257812 2.679688 -4.234375 2.734375 -4.203125 C 2.785156 -4.179688 2.816406 -4.160156 2.828125 -4.140625 C 2.847656 -4.128906 2.863281 -4.113281 2.875 -4.09375 C 2.882812 -4.082031 2.890625 -4.066406 2.890625 -4.046875 C 2.898438 -4.023438 2.90625 -4 2.90625 -3.96875 C 2.90625 -3.945312 2.90625 -3.914062 2.90625 -3.875 C 2.90625 -3.832031 2.90625 -3.796875 2.90625 -3.765625 C 2.90625 -3.734375 2.898438 -3.707031 2.890625 -3.6875 C 2.890625 -3.675781 2.878906 -3.664062 2.859375 -3.65625 C 2.847656 -3.644531 2.835938 -3.640625 2.828125 -3.640625 C 2.796875 -3.640625 2.753906 -3.65625 2.703125 -3.6875 C 2.648438 -3.71875 2.582031 -3.75 2.5 -3.78125 C 2.414062 -3.8125 2.316406 -3.84375 2.203125 -3.875 C 2.097656 -3.90625 1.976562 -3.921875 1.84375 -3.921875 C 1.695312 -3.921875 1.566406 -3.90625 1.453125 -3.875 C 1.347656 -3.84375 1.257812 -3.800781 1.1875 -3.75 C 1.125 -3.695312 1.078125 -3.632812 1.046875 -3.5625 C 1.023438 -3.488281 1.015625 -3.40625 1.015625 -3.3125 C 1.015625 -3.175781 1.046875 -3.0625 1.109375 -2.96875 C 1.171875 -2.882812 1.25 -2.804688 1.34375 -2.734375 C 1.445312 -2.671875 1.5625 -2.617188 1.6875 -2.578125 C 1.820312 -2.535156 1.953125 -2.488281 2.078125 -2.4375 C 2.210938 -2.382812 2.34375 -2.328125 2.46875 -2.265625 C 2.601562 -2.210938 2.722656 -2.140625 2.828125 -2.046875 C 2.929688 -1.960938 3.015625 -1.851562 3.078125 -1.71875 C 3.140625 -1.59375 3.171875 -1.4375 3.171875 -1.25 Z M 3.171875 -1.25 "/>
</symbol>
<symbol overflow="visible" id="glyph1-7">
<path style="stroke:none;" d="M 2.90625 -3.359375 C 2.90625 -3.160156 2.875 -2.984375 2.8125 -2.828125 C 2.757812 -2.679688 2.679688 -2.550781 2.578125 -2.4375 C 2.472656 -2.332031 2.347656 -2.25 2.203125 -2.1875 C 2.066406 -2.125 1.910156 -2.085938 1.734375 -2.078125 L 1.71875 -1.265625 C 1.71875 -1.222656 1.695312 -1.191406 1.65625 -1.171875 C 1.613281 -1.160156 1.550781 -1.15625 1.46875 -1.15625 C 1.414062 -1.15625 1.375 -1.15625 1.34375 -1.15625 C 1.3125 -1.164062 1.285156 -1.171875 1.265625 -1.171875 C 1.242188 -1.179688 1.226562 -1.191406 1.21875 -1.203125 C 1.207031 -1.222656 1.203125 -1.242188 1.203125 -1.265625 L 1.1875 -2.203125 C 1.175781 -2.253906 1.175781 -2.296875 1.1875 -2.328125 C 1.195312 -2.359375 1.210938 -2.382812 1.234375 -2.40625 C 1.253906 -2.425781 1.28125 -2.441406 1.3125 -2.453125 C 1.34375 -2.460938 1.378906 -2.46875 1.421875 -2.46875 L 1.5 -2.46875 C 1.644531 -2.46875 1.769531 -2.488281 1.875 -2.53125 C 1.976562 -2.582031 2.0625 -2.644531 2.125 -2.71875 C 2.195312 -2.789062 2.242188 -2.878906 2.265625 -2.984375 C 2.296875 -3.085938 2.3125 -3.195312 2.3125 -3.3125 C 2.3125 -3.445312 2.289062 -3.566406 2.25 -3.671875 C 2.21875 -3.773438 2.164062 -3.863281 2.09375 -3.9375 C 2.019531 -4.019531 1.925781 -4.082031 1.8125 -4.125 C 1.707031 -4.175781 1.582031 -4.203125 1.4375 -4.203125 C 1.300781 -4.203125 1.179688 -4.1875 1.078125 -4.15625 C 0.984375 -4.125 0.898438 -4.09375 0.828125 -4.0625 C 0.753906 -4.03125 0.695312 -4 0.65625 -3.96875 C 0.613281 -3.9375 0.578125 -3.921875 0.546875 -3.921875 C 0.535156 -3.921875 0.523438 -3.925781 0.515625 -3.9375 C 0.503906 -3.945312 0.492188 -3.957031 0.484375 -3.96875 C 0.472656 -3.988281 0.460938 -4.015625 0.453125 -4.046875 C 0.453125 -4.085938 0.453125 -4.128906 0.453125 -4.171875 C 0.453125 -4.234375 0.453125 -4.273438 0.453125 -4.296875 C 0.460938 -4.328125 0.476562 -4.351562 0.5 -4.375 C 0.53125 -4.394531 0.578125 -4.421875 0.640625 -4.453125 C 0.703125 -4.492188 0.78125 -4.53125 0.875 -4.5625 C 0.96875 -4.59375 1.066406 -4.617188 1.171875 -4.640625 C 1.285156 -4.660156 1.398438 -4.671875 1.515625 -4.671875 C 1.753906 -4.671875 1.960938 -4.632812 2.140625 -4.5625 C 2.316406 -4.488281 2.457031 -4.394531 2.5625 -4.28125 C 2.675781 -4.164062 2.757812 -4.023438 2.8125 -3.859375 C 2.875 -3.703125 2.90625 -3.535156 2.90625 -3.359375 Z M 1.828125 -0.359375 C 1.828125 -0.273438 1.820312 -0.207031 1.8125 -0.15625 C 1.800781 -0.113281 1.78125 -0.078125 1.75 -0.046875 C 1.726562 -0.015625 1.691406 0.00390625 1.640625 0.015625 C 1.597656 0.0234375 1.546875 0.03125 1.484375 0.03125 C 1.410156 0.03125 1.347656 0.0234375 1.296875 0.015625 C 1.253906 0.00390625 1.21875 -0.015625 1.1875 -0.046875 C 1.15625 -0.078125 1.132812 -0.113281 1.125 -0.15625 C 1.113281 -0.207031 1.109375 -0.273438 1.109375 -0.359375 C 1.109375 -0.429688 1.113281 -0.492188 1.125 -0.546875 C 1.132812 -0.597656 1.15625 -0.632812 1.1875 -0.65625 C 1.21875 -0.6875 1.253906 -0.707031 1.296875 -0.71875 C 1.347656 -0.726562 1.410156 -0.734375 1.484375 -0.734375 C 1.546875 -0.734375 1.597656 -0.726562 1.640625 -0.71875 C 1.691406 -0.707031 1.726562 -0.6875 1.75 -0.65625 C 1.78125 -0.632812 1.800781 -0.597656 1.8125 -0.546875 C 1.820312 -0.492188 1.828125 -0.429688 1.828125 -0.359375 Z M 1.828125 -0.359375 "/>
</symbol>
<symbol overflow="visible" id="glyph1-8">
<path style="stroke:none;" d="M 2.1875 -4.390625 C 2.1875 -4.347656 2.179688 -4.3125 2.171875 -4.28125 C 2.171875 -4.257812 2.164062 -4.238281 2.15625 -4.21875 C 2.15625 -4.207031 2.148438 -4.195312 2.140625 -4.1875 C 2.140625 -4.1875 2.128906 -4.1875 2.109375 -4.1875 C 2.097656 -4.1875 2.078125 -4.191406 2.046875 -4.203125 C 2.023438 -4.210938 2 -4.222656 1.96875 -4.234375 C 1.9375 -4.242188 1.894531 -4.253906 1.84375 -4.265625 C 1.800781 -4.273438 1.75 -4.28125 1.6875 -4.28125 C 1.601562 -4.28125 1.53125 -4.265625 1.46875 -4.234375 C 1.414062 -4.210938 1.367188 -4.171875 1.328125 -4.109375 C 1.296875 -4.054688 1.269531 -3.984375 1.25 -3.890625 C 1.238281 -3.804688 1.234375 -3.695312 1.234375 -3.5625 L 1.234375 -3.234375 L 1.90625 -3.234375 C 1.925781 -3.234375 1.941406 -3.226562 1.953125 -3.21875 C 1.960938 -3.207031 1.972656 -3.191406 1.984375 -3.171875 C 1.992188 -3.148438 2.003906 -3.125 2.015625 -3.09375 C 2.023438 -3.070312 2.03125 -3.039062 2.03125 -3 C 2.03125 -2.914062 2.019531 -2.851562 2 -2.8125 C 1.976562 -2.78125 1.945312 -2.765625 1.90625 -2.765625 L 1.234375 -2.765625 L 1.234375 -0.078125 C 1.234375 -0.0664062 1.226562 -0.0507812 1.21875 -0.03125 C 1.207031 -0.0195312 1.191406 -0.0078125 1.171875 0 C 1.148438 0 1.117188 0 1.078125 0 C 1.046875 0.0078125 1.003906 0.015625 0.953125 0.015625 C 0.890625 0.015625 0.835938 0.0078125 0.796875 0 C 0.765625 0 0.738281 0 0.71875 0 C 0.695312 -0.0078125 0.679688 -0.0195312 0.671875 -0.03125 C 0.671875 -0.0507812 0.671875 -0.0664062 0.671875 -0.078125 L 0.671875 -2.765625 L 0.234375 -2.765625 C 0.203125 -2.765625 0.175781 -2.78125 0.15625 -2.8125 C 0.132812 -2.851562 0.125 -2.914062 0.125 -3 C 0.125 -3.039062 0.125 -3.070312 0.125 -3.09375 C 0.132812 -3.125 0.144531 -3.148438 0.15625 -3.171875 C 0.164062 -3.191406 0.175781 -3.207031 0.1875 -3.21875 C 0.195312 -3.226562 0.210938 -3.234375 0.234375 -3.234375 L 0.671875 -3.234375 L 0.671875 -3.546875 C 0.671875 -3.753906 0.6875 -3.9375 0.71875 -4.09375 C 0.757812 -4.25 0.820312 -4.375 0.90625 -4.46875 C 0.988281 -4.5625 1.09375 -4.628906 1.21875 -4.671875 C 1.34375 -4.722656 1.488281 -4.75 1.65625 -4.75 C 1.726562 -4.75 1.800781 -4.738281 1.875 -4.71875 C 1.957031 -4.707031 2.015625 -4.691406 2.046875 -4.671875 C 2.085938 -4.660156 2.113281 -4.648438 2.125 -4.640625 C 2.144531 -4.628906 2.160156 -4.609375 2.171875 -4.578125 C 2.179688 -4.554688 2.1875 -4.53125 2.1875 -4.5 C 2.1875 -4.476562 2.1875 -4.441406 2.1875 -4.390625 Z M 2.1875 -4.390625 "/>
</symbol>
<symbol overflow="visible" id="glyph1-9">
<path style="stroke:none;" d="M 1.078125 -0.078125 C 1.078125 -0.0664062 1.070312 -0.0507812 1.0625 -0.03125 C 1.050781 -0.0195312 1.035156 -0.0078125 1.015625 0 C 0.992188 0 0.960938 0 0.921875 0 C 0.890625 0.0078125 0.847656 0.015625 0.796875 0.015625 C 0.742188 0.015625 0.695312 0.0078125 0.65625 0 C 0.625 0 0.597656 0 0.578125 0 C 0.554688 -0.0078125 0.539062 -0.0195312 0.53125 -0.03125 C 0.519531 -0.0507812 0.515625 -0.0664062 0.515625 -0.078125 L 0.515625 -3.140625 C 0.515625 -3.160156 0.519531 -3.175781 0.53125 -3.1875 C 0.539062 -3.195312 0.554688 -3.207031 0.578125 -3.21875 C 0.597656 -3.226562 0.625 -3.234375 0.65625 -3.234375 C 0.695312 -3.242188 0.742188 -3.25 0.796875 -3.25 C 0.847656 -3.25 0.890625 -3.242188 0.921875 -3.234375 C 0.960938 -3.234375 0.992188 -3.226562 1.015625 -3.21875 C 1.035156 -3.207031 1.050781 -3.195312 1.0625 -3.1875 C 1.070312 -3.175781 1.078125 -3.160156 1.078125 -3.140625 Z M 1.140625 -4.171875 C 1.140625 -4.035156 1.113281 -3.941406 1.0625 -3.890625 C 1.019531 -3.847656 0.929688 -3.828125 0.796875 -3.828125 C 0.660156 -3.828125 0.566406 -3.847656 0.515625 -3.890625 C 0.472656 -3.941406 0.453125 -4.035156 0.453125 -4.171875 C 0.453125 -4.296875 0.472656 -4.378906 0.515625 -4.421875 C 0.566406 -4.472656 0.660156 -4.5 0.796875 -4.5 C 0.929688 -4.5 1.019531 -4.472656 1.0625 -4.421875 C 1.113281 -4.378906 1.140625 -4.296875 1.140625 -4.171875 Z M 1.140625 -4.171875 "/>
</symbol>
<symbol overflow="visible" id="glyph1-10">
<path style="stroke:none;" d="M 2.125 -3.3125 C 2.125 -3.132812 2.101562 -2.972656 2.0625 -2.828125 C 2.03125 -2.691406 1.972656 -2.570312 1.890625 -2.46875 C 1.816406 -2.375 1.71875 -2.296875 1.59375 -2.234375 C 1.46875 -2.179688 1.328125 -2.15625 1.171875 -2.15625 C 1.003906 -2.15625 0.859375 -2.179688 0.734375 -2.234375 C 0.617188 -2.285156 0.523438 -2.359375 0.453125 -2.453125 C 0.378906 -2.554688 0.320312 -2.675781 0.28125 -2.8125 C 0.25 -2.957031 0.234375 -3.117188 0.234375 -3.296875 C 0.234375 -3.460938 0.25 -3.613281 0.28125 -3.75 C 0.320312 -3.894531 0.378906 -4.019531 0.453125 -4.125 C 0.535156 -4.226562 0.632812 -4.304688 0.75 -4.359375 C 0.875 -4.421875 1.019531 -4.453125 1.1875 -4.453125 C 1.363281 -4.453125 1.515625 -4.421875 1.640625 -4.359375 C 1.765625 -4.296875 1.863281 -4.210938 1.9375 -4.109375 C 2.007812 -4.003906 2.054688 -3.882812 2.078125 -3.75 C 2.109375 -3.613281 2.125 -3.46875 2.125 -3.3125 Z M 1.65625 -3.296875 C 1.65625 -3.421875 1.644531 -3.53125 1.625 -3.625 C 1.601562 -3.726562 1.570312 -3.8125 1.53125 -3.875 C 1.5 -3.945312 1.453125 -4 1.390625 -4.03125 C 1.328125 -4.0625 1.253906 -4.078125 1.171875 -4.078125 C 1.097656 -4.078125 1.03125 -4.0625 0.96875 -4.03125 C 0.90625 -4 0.851562 -3.953125 0.8125 -3.890625 C 0.78125 -3.828125 0.753906 -3.75 0.734375 -3.65625 C 0.722656 -3.5625 0.71875 -3.445312 0.71875 -3.3125 C 0.71875 -3.164062 0.726562 -3.039062 0.75 -2.9375 C 0.769531 -2.832031 0.800781 -2.75 0.84375 -2.6875 C 0.882812 -2.625 0.929688 -2.582031 0.984375 -2.5625 C 1.046875 -2.539062 1.113281 -2.53125 1.1875 -2.53125 C 1.28125 -2.53125 1.351562 -2.546875 1.40625 -2.578125 C 1.46875 -2.609375 1.515625 -2.65625 1.546875 -2.71875 C 1.585938 -2.789062 1.613281 -2.875 1.625 -2.96875 C 1.644531 -3.0625 1.65625 -3.171875 1.65625 -3.296875 Z M 4.71875 -1.109375 C 4.71875 -0.929688 4.695312 -0.769531 4.65625 -0.625 C 4.625 -0.488281 4.566406 -0.367188 4.484375 -0.265625 C 4.410156 -0.171875 4.3125 -0.09375 4.1875 -0.03125 C 4.0625 0.0195312 3.921875 0.046875 3.765625 0.046875 C 3.597656 0.046875 3.453125 0.0195312 3.328125 -0.03125 C 3.210938 -0.0820312 3.117188 -0.15625 3.046875 -0.25 C 2.972656 -0.351562 2.914062 -0.472656 2.875 -0.609375 C 2.84375 -0.753906 2.828125 -0.914062 2.828125 -1.09375 C 2.828125 -1.257812 2.84375 -1.410156 2.875 -1.546875 C 2.914062 -1.691406 2.972656 -1.816406 3.046875 -1.921875 C 3.128906 -2.023438 3.226562 -2.101562 3.34375 -2.15625 C 3.46875 -2.21875 3.613281 -2.25 3.78125 -2.25 C 3.957031 -2.25 4.109375 -2.21875 4.234375 -2.15625 C 4.359375 -2.09375 4.457031 -2.007812 4.53125 -1.90625 C 4.601562 -1.800781 4.648438 -1.679688 4.671875 -1.546875 C 4.703125 -1.410156 4.71875 -1.265625 4.71875 -1.109375 Z M 4.25 -1.09375 C 4.25 -1.21875 4.238281 -1.328125 4.21875 -1.421875 C 4.195312 -1.523438 4.164062 -1.609375 4.125 -1.671875 C 4.09375 -1.742188 4.046875 -1.796875 3.984375 -1.828125 C 3.921875 -1.859375 3.847656 -1.875 3.765625 -1.875 C 3.691406 -1.875 3.625 -1.859375 3.5625 -1.828125 C 3.5 -1.796875 3.445312 -1.75 3.40625 -1.6875 C 3.375 -1.625 3.347656 -1.546875 3.328125 -1.453125 C 3.316406 -1.359375 3.3125 -1.242188 3.3125 -1.109375 C 3.3125 -0.960938 3.320312 -0.835938 3.34375 -0.734375 C 3.363281 -0.628906 3.394531 -0.546875 3.4375 -0.484375 C 3.476562 -0.421875 3.523438 -0.378906 3.578125 -0.359375 C 3.640625 -0.335938 3.707031 -0.328125 3.78125 -0.328125 C 3.875 -0.328125 3.945312 -0.34375 4 -0.375 C 4.0625 -0.40625 4.109375 -0.453125 4.140625 -0.515625 C 4.179688 -0.585938 4.207031 -0.671875 4.21875 -0.765625 C 4.238281 -0.859375 4.25 -0.96875 4.25 -1.09375 Z M 1.1875 0.03125 C 1.175781 0.0507812 1.160156 0.0664062 1.140625 0.078125 C 1.117188 0.0859375 1.097656 0.09375 1.078125 0.09375 C 1.054688 0.101562 1.03125 0.109375 1 0.109375 C 0.96875 0.117188 0.929688 0.125 0.890625 0.125 C 0.835938 0.125 0.796875 0.117188 0.765625 0.109375 C 0.734375 0.0976562 0.710938 0.0820312 0.703125 0.0625 C 0.691406 0.0507812 0.6875 0.0351562 0.6875 0.015625 C 0.6875 -0.00390625 0.695312 -0.0234375 0.71875 -0.046875 L 3.78125 -4.4375 C 3.789062 -4.445312 3.800781 -4.457031 3.8125 -4.46875 C 3.832031 -4.488281 3.851562 -4.5 3.875 -4.5 C 3.894531 -4.507812 3.921875 -4.515625 3.953125 -4.515625 C 3.984375 -4.523438 4.023438 -4.53125 4.078125 -4.53125 C 4.117188 -4.53125 4.15625 -4.523438 4.1875 -4.515625 C 4.21875 -4.503906 4.238281 -4.488281 4.25 -4.46875 C 4.269531 -4.457031 4.273438 -4.441406 4.265625 -4.421875 C 4.265625 -4.398438 4.253906 -4.375 4.234375 -4.34375 Z M 1.1875 0.03125 "/>
</symbol>
<symbol overflow="visible" id="glyph1-11">
<path style="stroke:none;" d="M 3.15625 -0.078125 C 3.15625 -0.0664062 3.148438 -0.0507812 3.140625 -0.03125 C 3.128906 -0.0195312 3.113281 -0.0078125 3.09375 0 C 3.070312 0 3.039062 0 3 0 C 2.96875 0.0078125 2.925781 0.015625 2.875 0.015625 C 2.8125 0.015625 2.757812 0.0078125 2.71875 0 C 2.6875 0 2.660156 0 2.640625 0 C 2.628906 -0.0078125 2.617188 -0.0195312 2.609375 -0.03125 C 2.597656 -0.0507812 2.59375 -0.0664062 2.59375 -0.078125 L 2.59375 -1.875 C 2.59375 -2.050781 2.578125 -2.191406 2.546875 -2.296875 C 2.523438 -2.398438 2.488281 -2.488281 2.4375 -2.5625 C 2.382812 -2.644531 2.316406 -2.707031 2.234375 -2.75 C 2.148438 -2.789062 2.050781 -2.8125 1.9375 -2.8125 C 1.800781 -2.8125 1.660156 -2.757812 1.515625 -2.65625 C 1.378906 -2.5625 1.234375 -2.414062 1.078125 -2.21875 L 1.078125 -0.078125 C 1.078125 -0.0664062 1.070312 -0.0507812 1.0625 -0.03125 C 1.050781 -0.0195312 1.035156 -0.0078125 1.015625 0 C 0.992188 0 0.960938 0 0.921875 0 C 0.890625 0.0078125 0.847656 0.015625 0.796875 0.015625 C 0.742188 0.015625 0.695312 0.0078125 0.65625 0 C 0.625 0 0.597656 0 0.578125 0 C 0.554688 -0.0078125 0.539062 -0.0195312 0.53125 -0.03125 C 0.519531 -0.0507812 0.515625 -0.0664062 0.515625 -0.078125 L 0.515625 -3.140625 C 0.515625 -3.160156 0.519531 -3.175781 0.53125 -3.1875 C 0.539062 -3.195312 0.550781 -3.207031 0.5625 -3.21875 C 0.582031 -3.226562 0.609375 -3.234375 0.640625 -3.234375 C 0.679688 -3.242188 0.726562 -3.25 0.78125 -3.25 C 0.820312 -3.25 0.859375 -3.242188 0.890625 -3.234375 C 0.929688 -3.234375 0.957031 -3.226562 0.96875 -3.21875 C 0.988281 -3.207031 1.003906 -3.195312 1.015625 -3.1875 C 1.023438 -3.175781 1.03125 -3.160156 1.03125 -3.140625 L 1.03125 -2.734375 C 1.195312 -2.929688 1.363281 -3.070312 1.53125 -3.15625 C 1.707031 -3.25 1.882812 -3.296875 2.0625 -3.296875 C 2.257812 -3.296875 2.425781 -3.257812 2.5625 -3.1875 C 2.707031 -3.125 2.820312 -3.03125 2.90625 -2.90625 C 2.988281 -2.789062 3.050781 -2.65625 3.09375 -2.5 C 3.132812 -2.351562 3.15625 -2.171875 3.15625 -1.953125 Z M 3.15625 -0.078125 "/>
</symbol>
<symbol overflow="visible" id="glyph1-12">
<path style="stroke:none;" d="M 2.828125 -0.078125 C 2.828125 -0.0546875 2.816406 -0.0351562 2.796875 -0.015625 C 2.773438 -0.00390625 2.75 0 2.71875 0 C 2.6875 0.0078125 2.640625 0.015625 2.578125 0.015625 C 2.515625 0.015625 2.46875 0.0078125 2.4375 0 C 2.40625 0 2.378906 -0.00390625 2.359375 -0.015625 C 2.347656 -0.0351562 2.34375 -0.0546875 2.34375 -0.078125 L 2.34375 -0.390625 C 2.207031 -0.242188 2.054688 -0.128906 1.890625 -0.046875 C 1.722656 0.0234375 1.550781 0.0625 1.375 0.0625 C 1.207031 0.0625 1.054688 0.0390625 0.921875 0 C 0.796875 -0.0390625 0.6875 -0.0976562 0.59375 -0.171875 C 0.507812 -0.253906 0.441406 -0.351562 0.390625 -0.46875 C 0.335938 -0.582031 0.3125 -0.710938 0.3125 -0.859375 C 0.3125 -1.035156 0.34375 -1.1875 0.40625 -1.3125 C 0.476562 -1.4375 0.582031 -1.539062 0.71875 -1.625 C 0.851562 -1.707031 1.015625 -1.769531 1.203125 -1.8125 C 1.390625 -1.851562 1.601562 -1.875 1.84375 -1.875 L 2.265625 -1.875 L 2.265625 -2.125 C 2.265625 -2.238281 2.25 -2.335938 2.21875 -2.421875 C 2.195312 -2.515625 2.160156 -2.59375 2.109375 -2.65625 C 2.054688 -2.71875 1.984375 -2.765625 1.890625 -2.796875 C 1.804688 -2.828125 1.695312 -2.84375 1.5625 -2.84375 C 1.425781 -2.84375 1.300781 -2.820312 1.1875 -2.78125 C 1.082031 -2.75 0.988281 -2.710938 0.90625 -2.671875 C 0.820312 -2.640625 0.75 -2.601562 0.6875 -2.5625 C 0.632812 -2.53125 0.597656 -2.515625 0.578125 -2.515625 C 0.554688 -2.515625 0.535156 -2.519531 0.515625 -2.53125 C 0.503906 -2.539062 0.492188 -2.554688 0.484375 -2.578125 C 0.472656 -2.597656 0.46875 -2.617188 0.46875 -2.640625 C 0.46875 -2.671875 0.46875 -2.703125 0.46875 -2.734375 C 0.46875 -2.796875 0.46875 -2.84375 0.46875 -2.875 C 0.476562 -2.90625 0.5 -2.9375 0.53125 -2.96875 C 0.5625 -3 0.613281 -3.03125 0.6875 -3.0625 C 0.757812 -3.101562 0.84375 -3.140625 0.9375 -3.171875 C 1.039062 -3.210938 1.148438 -3.242188 1.265625 -3.265625 C 1.378906 -3.285156 1.492188 -3.296875 1.609375 -3.296875 C 1.835938 -3.296875 2.023438 -3.269531 2.171875 -3.21875 C 2.328125 -3.164062 2.453125 -3.09375 2.546875 -3 C 2.640625 -2.90625 2.707031 -2.785156 2.75 -2.640625 C 2.800781 -2.492188 2.828125 -2.328125 2.828125 -2.140625 Z M 2.265625 -1.484375 L 1.78125 -1.484375 C 1.632812 -1.484375 1.503906 -1.46875 1.390625 -1.4375 C 1.273438 -1.414062 1.175781 -1.378906 1.09375 -1.328125 C 1.019531 -1.273438 0.96875 -1.210938 0.9375 -1.140625 C 0.90625 -1.066406 0.890625 -0.984375 0.890625 -0.890625 C 0.890625 -0.734375 0.9375 -0.609375 1.03125 -0.515625 C 1.132812 -0.421875 1.273438 -0.375 1.453125 -0.375 C 1.609375 -0.375 1.75 -0.410156 1.875 -0.484375 C 2 -0.554688 2.128906 -0.671875 2.265625 -0.828125 Z M 2.265625 -1.484375 "/>
</symbol>
<symbol overflow="visible" id="glyph1-13">
<path style="stroke:none;" d="M 5.046875 -0.078125 C 5.046875 -0.0664062 5.039062 -0.0507812 5.03125 -0.03125 C 5.03125 -0.0195312 5.019531 -0.0078125 5 0 C 4.976562 0 4.945312 0 4.90625 0 C 4.875 0.0078125 4.832031 0.015625 4.78125 0.015625 C 4.71875 0.015625 4.664062 0.0078125 4.625 0 C 4.59375 0 4.566406 0 4.546875 0 C 4.523438 -0.0078125 4.507812 -0.0195312 4.5 -0.03125 C 4.488281 -0.0507812 4.484375 -0.0664062 4.484375 -0.078125 L 4.484375 -1.9375 C 4.484375 -2.070312 4.472656 -2.191406 4.453125 -2.296875 C 4.429688 -2.398438 4.394531 -2.488281 4.34375 -2.5625 C 4.289062 -2.644531 4.226562 -2.707031 4.15625 -2.75 C 4.082031 -2.789062 3.992188 -2.8125 3.890625 -2.8125 C 3.753906 -2.8125 3.617188 -2.757812 3.484375 -2.65625 C 3.359375 -2.5625 3.21875 -2.414062 3.0625 -2.21875 L 3.0625 -0.078125 C 3.0625 -0.0664062 3.054688 -0.0507812 3.046875 -0.03125 C 3.035156 -0.0195312 3.019531 -0.0078125 3 0 C 2.976562 0 2.945312 0 2.90625 0 C 2.875 0.0078125 2.832031 0.015625 2.78125 0.015625 C 2.726562 0.015625 2.679688 0.0078125 2.640625 0 C 2.609375 0 2.582031 0 2.5625 0 C 2.539062 -0.0078125 2.523438 -0.0195312 2.515625 -0.03125 C 2.503906 -0.0507812 2.5 -0.0664062 2.5 -0.078125 L 2.5 -1.9375 C 2.5 -2.070312 2.488281 -2.191406 2.46875 -2.296875 C 2.445312 -2.398438 2.410156 -2.488281 2.359375 -2.5625 C 2.304688 -2.644531 2.238281 -2.707031 2.15625 -2.75 C 2.082031 -2.789062 1.992188 -2.8125 1.890625 -2.8125 C 1.765625 -2.8125 1.632812 -2.757812 1.5 -2.65625 C 1.375 -2.5625 1.234375 -2.414062 1.078125 -2.21875 L 1.078125 -0.078125 C 1.078125 -0.0664062 1.070312 -0.0507812 1.0625 -0.03125 C 1.050781 -0.0195312 1.035156 -0.0078125 1.015625 0 C 0.992188 0 0.960938 0 0.921875 0 C 0.890625 0.0078125 0.847656 0.015625 0.796875 0.015625 C 0.742188 0.015625 0.695312 0.0078125 0.65625 0 C 0.625 0 0.597656 0 0.578125 0 C 0.554688 -0.0078125 0.539062 -0.0195312 0.53125 -0.03125 C 0.519531 -0.0507812 0.515625 -0.0664062 0.515625 -0.078125 L 0.515625 -3.140625 C 0.515625 -3.160156 0.519531 -3.175781 0.53125 -3.1875 C 0.539062 -3.195312 0.550781 -3.207031 0.5625 -3.21875 C 0.582031 -3.226562 0.609375 -3.234375 0.640625 -3.234375 C 0.679688 -3.242188 0.726562 -3.25 0.78125 -3.25 C 0.820312 -3.25 0.859375 -3.242188 0.890625 -3.234375 C 0.929688 -3.234375 0.957031 -3.226562 0.96875 -3.21875 C 0.988281 -3.207031 1.003906 -3.195312 1.015625 -3.1875 C 1.023438 -3.175781 1.03125 -3.160156 1.03125 -3.140625 L 1.03125 -2.734375 C 1.195312 -2.929688 1.359375 -3.070312 1.515625 -3.15625 C 1.679688 -3.25 1.847656 -3.296875 2.015625 -3.296875 C 2.140625 -3.296875 2.253906 -3.28125 2.359375 -3.25 C 2.460938 -3.21875 2.550781 -3.175781 2.625 -3.125 C 2.695312 -3.070312 2.757812 -3.007812 2.8125 -2.9375 C 2.875 -2.863281 2.921875 -2.78125 2.953125 -2.6875 C 3.054688 -2.800781 3.15625 -2.894531 3.25 -2.96875 C 3.34375 -3.050781 3.429688 -3.113281 3.515625 -3.15625 C 3.597656 -3.207031 3.675781 -3.242188 3.75 -3.265625 C 3.832031 -3.285156 3.914062 -3.296875 4 -3.296875 C 4.195312 -3.296875 4.363281 -3.257812 4.5 -3.1875 C 4.632812 -3.125 4.742188 -3.03125 4.828125 -2.90625 C 4.910156 -2.789062 4.96875 -2.65625 5 -2.5 C 5.03125 -2.351562 5.046875 -2.191406 5.046875 -2.015625 Z M 5.046875 -0.078125 "/>
</symbol>
<symbol overflow="visible" id="glyph1-14">
<path style="stroke:none;" d="M 3.03125 -3.140625 C 3.03125 -3.140625 3.023438 -3.132812 3.015625 -3.125 C 3.015625 -3.113281 3.015625 -3.097656 3.015625 -3.078125 C 3.015625 -3.066406 3.007812 -3.054688 3 -3.046875 C 3 -3.035156 3 -3.019531 3 -3 L 1.953125 -0.109375 C 1.941406 -0.078125 1.925781 -0.0507812 1.90625 -0.03125 C 1.894531 -0.0195312 1.875 -0.0078125 1.84375 0 C 1.820312 0.0078125 1.785156 0.015625 1.734375 0.015625 C 1.691406 0.015625 1.640625 0.015625 1.578125 0.015625 C 1.503906 0.015625 1.441406 0.0078125 1.390625 0 C 1.347656 0 1.3125 0 1.28125 0 C 1.257812 -0.0078125 1.238281 -0.0195312 1.21875 -0.03125 C 1.207031 -0.0507812 1.195312 -0.078125 1.1875 -0.109375 L 0.15625 -3 C 0.144531 -3.03125 0.132812 -3.054688 0.125 -3.078125 C 0.125 -3.097656 0.117188 -3.113281 0.109375 -3.125 C 0.109375 -3.132812 0.109375 -3.140625 0.109375 -3.140625 C 0.109375 -3.160156 0.113281 -3.175781 0.125 -3.1875 C 0.132812 -3.207031 0.148438 -3.21875 0.171875 -3.21875 C 0.191406 -3.226562 0.21875 -3.234375 0.25 -3.234375 C 0.289062 -3.242188 0.335938 -3.25 0.390625 -3.25 C 0.453125 -3.25 0.503906 -3.242188 0.546875 -3.234375 C 0.585938 -3.234375 0.617188 -3.226562 0.640625 -3.21875 C 0.660156 -3.207031 0.675781 -3.195312 0.6875 -3.1875 C 0.695312 -3.175781 0.707031 -3.160156 0.71875 -3.140625 L 1.578125 -0.625 L 1.59375 -0.578125 L 1.609375 -0.625 L 2.453125 -3.140625 C 2.460938 -3.160156 2.472656 -3.175781 2.484375 -3.1875 C 2.492188 -3.195312 2.507812 -3.207031 2.53125 -3.21875 C 2.550781 -3.226562 2.578125 -3.234375 2.609375 -3.234375 C 2.648438 -3.242188 2.703125 -3.25 2.765625 -3.25 C 2.816406 -3.25 2.859375 -3.242188 2.890625 -3.234375 C 2.921875 -3.234375 2.945312 -3.226562 2.96875 -3.21875 C 2.988281 -3.21875 3.003906 -3.207031 3.015625 -3.1875 C 3.023438 -3.175781 3.03125 -3.160156 3.03125 -3.140625 Z M 3.03125 -3.140625 "/>
</symbol>
<symbol overflow="visible" id="glyph1-15">
<path style="stroke:none;" d="M 3.328125 -1.65625 C 3.328125 -1.394531 3.296875 -1.15625 3.234375 -0.9375 C 3.179688 -0.726562 3.097656 -0.546875 2.984375 -0.390625 C 2.878906 -0.242188 2.742188 -0.128906 2.578125 -0.046875 C 2.410156 0.0234375 2.21875 0.0625 2 0.0625 C 1.914062 0.0625 1.832031 0.0507812 1.75 0.03125 C 1.675781 0.0195312 1.601562 -0.00390625 1.53125 -0.046875 C 1.457031 -0.0859375 1.382812 -0.132812 1.3125 -0.1875 C 1.238281 -0.25 1.160156 -0.320312 1.078125 -0.40625 L 1.078125 1.125 C 1.078125 1.144531 1.070312 1.160156 1.0625 1.171875 C 1.050781 1.179688 1.035156 1.191406 1.015625 1.203125 C 0.992188 1.210938 0.960938 1.21875 0.921875 1.21875 C 0.890625 1.226562 0.847656 1.234375 0.796875 1.234375 C 0.742188 1.234375 0.695312 1.226562 0.65625 1.21875 C 0.625 1.21875 0.597656 1.210938 0.578125 1.203125 C 0.554688 1.191406 0.539062 1.179688 0.53125 1.171875 C 0.519531 1.160156 0.515625 1.144531 0.515625 1.125 L 0.515625 -3.140625 C 0.515625 -3.160156 0.519531 -3.175781 0.53125 -3.1875 C 0.539062 -3.195312 0.550781 -3.207031 0.5625 -3.21875 C 0.582031 -3.226562 0.609375 -3.234375 0.640625 -3.234375 C 0.679688 -3.242188 0.722656 -3.25 0.765625 -3.25 C 0.804688 -3.25 0.84375 -3.242188 0.875 -3.234375 C 0.90625 -3.234375 0.929688 -3.226562 0.953125 -3.21875 C 0.972656 -3.207031 0.988281 -3.195312 1 -3.1875 C 1.007812 -3.175781 1.015625 -3.160156 1.015625 -3.140625 L 1.015625 -2.734375 C 1.109375 -2.828125 1.195312 -2.90625 1.28125 -2.96875 C 1.363281 -3.039062 1.445312 -3.097656 1.53125 -3.140625 C 1.625 -3.191406 1.71875 -3.226562 1.8125 -3.25 C 1.90625 -3.28125 2 -3.296875 2.09375 -3.296875 C 2.320312 -3.296875 2.515625 -3.25 2.671875 -3.15625 C 2.828125 -3.070312 2.953125 -2.957031 3.046875 -2.8125 C 3.140625 -2.664062 3.207031 -2.492188 3.25 -2.296875 C 3.300781 -2.097656 3.328125 -1.882812 3.328125 -1.65625 Z M 2.734375 -1.59375 C 2.734375 -1.75 2.722656 -1.898438 2.703125 -2.046875 C 2.679688 -2.191406 2.640625 -2.320312 2.578125 -2.4375 C 2.523438 -2.550781 2.445312 -2.640625 2.34375 -2.703125 C 2.25 -2.773438 2.128906 -2.8125 1.984375 -2.8125 C 1.910156 -2.8125 1.835938 -2.800781 1.765625 -2.78125 C 1.703125 -2.757812 1.632812 -2.722656 1.5625 -2.671875 C 1.488281 -2.628906 1.410156 -2.566406 1.328125 -2.484375 C 1.253906 -2.410156 1.171875 -2.320312 1.078125 -2.21875 L 1.078125 -1 C 1.234375 -0.8125 1.378906 -0.664062 1.515625 -0.5625 C 1.648438 -0.46875 1.796875 -0.421875 1.953125 -0.421875 C 2.085938 -0.421875 2.207031 -0.453125 2.3125 -0.515625 C 2.414062 -0.585938 2.5 -0.675781 2.5625 -0.78125 C 2.625 -0.894531 2.664062 -1.019531 2.6875 -1.15625 C 2.71875 -1.300781 2.734375 -1.445312 2.734375 -1.59375 Z M 2.734375 -1.59375 "/>
</symbol>
<symbol overflow="visible" id="glyph1-16">
<path style="stroke:none;" d="M 3.140625 -0.25 C 3.140625 -0.207031 3.132812 -0.171875 3.125 -0.140625 C 3.125 -0.109375 3.117188 -0.0820312 3.109375 -0.0625 C 3.097656 -0.0390625 3.082031 -0.0234375 3.0625 -0.015625 C 3.039062 -0.00390625 3.023438 0 3.015625 0 L 0.578125 0 C 0.546875 0 0.519531 -0.00390625 0.5 -0.015625 C 0.476562 -0.0234375 0.457031 -0.0351562 0.4375 -0.046875 C 0.414062 -0.0664062 0.398438 -0.09375 0.390625 -0.125 C 0.390625 -0.164062 0.390625 -0.207031 0.390625 -0.25 C 0.390625 -0.300781 0.390625 -0.34375 0.390625 -0.375 C 0.390625 -0.40625 0.394531 -0.429688 0.40625 -0.453125 C 0.425781 -0.484375 0.441406 -0.507812 0.453125 -0.53125 C 0.472656 -0.5625 0.492188 -0.59375 0.515625 -0.625 L 1.375 -1.53125 C 1.570312 -1.738281 1.726562 -1.921875 1.84375 -2.078125 C 1.96875 -2.242188 2.0625 -2.394531 2.125 -2.53125 C 2.1875 -2.675781 2.226562 -2.800781 2.25 -2.90625 C 2.269531 -3.019531 2.28125 -3.125 2.28125 -3.21875 C 2.28125 -3.320312 2.265625 -3.414062 2.234375 -3.5 C 2.203125 -3.582031 2.15625 -3.65625 2.09375 -3.71875 C 2.03125 -3.789062 1.953125 -3.84375 1.859375 -3.875 C 1.773438 -3.914062 1.675781 -3.9375 1.5625 -3.9375 C 1.414062 -3.9375 1.285156 -3.914062 1.171875 -3.875 C 1.066406 -3.84375 0.972656 -3.800781 0.890625 -3.75 C 0.816406 -3.707031 0.75 -3.664062 0.6875 -3.625 C 0.632812 -3.59375 0.59375 -3.578125 0.5625 -3.578125 C 0.550781 -3.578125 0.535156 -3.582031 0.515625 -3.59375 C 0.503906 -3.601562 0.492188 -3.613281 0.484375 -3.625 C 0.484375 -3.644531 0.476562 -3.671875 0.46875 -3.703125 C 0.46875 -3.742188 0.46875 -3.789062 0.46875 -3.84375 C 0.46875 -3.875 0.46875 -3.898438 0.46875 -3.921875 C 0.46875 -3.953125 0.472656 -3.972656 0.484375 -3.984375 C 0.492188 -4.003906 0.5 -4.019531 0.5 -4.03125 C 0.507812 -4.050781 0.523438 -4.070312 0.546875 -4.09375 C 0.578125 -4.125 0.625 -4.15625 0.6875 -4.1875 C 0.757812 -4.226562 0.847656 -4.269531 0.953125 -4.3125 C 1.054688 -4.351562 1.164062 -4.382812 1.28125 -4.40625 C 1.40625 -4.4375 1.535156 -4.453125 1.671875 -4.453125 C 1.878906 -4.453125 2.0625 -4.421875 2.21875 -4.359375 C 2.382812 -4.304688 2.519531 -4.226562 2.625 -4.125 C 2.726562 -4.019531 2.804688 -3.894531 2.859375 -3.75 C 2.910156 -3.613281 2.9375 -3.46875 2.9375 -3.3125 C 2.9375 -3.175781 2.921875 -3.035156 2.890625 -2.890625 C 2.867188 -2.753906 2.816406 -2.601562 2.734375 -2.4375 C 2.660156 -2.28125 2.546875 -2.101562 2.390625 -1.90625 C 2.242188 -1.707031 2.046875 -1.476562 1.796875 -1.21875 L 1.09375 -0.5 L 3 -0.5 C 3.019531 -0.5 3.035156 -0.492188 3.046875 -0.484375 C 3.066406 -0.472656 3.082031 -0.457031 3.09375 -0.4375 C 3.113281 -0.414062 3.125 -0.390625 3.125 -0.359375 C 3.132812 -0.328125 3.140625 -0.289062 3.140625 -0.25 Z M 3.140625 -0.25 "/>
</symbol>
<symbol overflow="visible" id="glyph1-17">
<path style="stroke:none;" d="M 3.140625 -0.234375 C 3.140625 -0.191406 3.132812 -0.15625 3.125 -0.125 C 3.125 -0.09375 3.117188 -0.0664062 3.109375 -0.046875 C 3.097656 -0.0351562 3.082031 -0.0234375 3.0625 -0.015625 C 3.050781 -0.00390625 3.039062 0 3.03125 0 L 0.734375 0 C 0.710938 0 0.695312 -0.00390625 0.6875 -0.015625 C 0.675781 -0.0234375 0.660156 -0.0351562 0.640625 -0.046875 C 0.628906 -0.0664062 0.617188 -0.09375 0.609375 -0.125 C 0.609375 -0.15625 0.609375 -0.191406 0.609375 -0.234375 C 0.609375 -0.273438 0.609375 -0.304688 0.609375 -0.328125 C 0.617188 -0.359375 0.628906 -0.382812 0.640625 -0.40625 C 0.648438 -0.425781 0.660156 -0.441406 0.671875 -0.453125 C 0.691406 -0.460938 0.710938 -0.46875 0.734375 -0.46875 L 1.640625 -0.46875 L 1.640625 -3.8125 L 0.796875 -3.296875 C 0.753906 -3.273438 0.71875 -3.257812 0.6875 -3.25 C 0.664062 -3.25 0.644531 -3.253906 0.625 -3.265625 C 0.613281 -3.285156 0.601562 -3.3125 0.59375 -3.34375 C 0.59375 -3.382812 0.59375 -3.429688 0.59375 -3.484375 C 0.59375 -3.515625 0.59375 -3.546875 0.59375 -3.578125 C 0.59375 -3.609375 0.597656 -3.628906 0.609375 -3.640625 C 0.617188 -3.660156 0.628906 -3.675781 0.640625 -3.6875 C 0.648438 -3.707031 0.664062 -3.722656 0.6875 -3.734375 L 1.703125 -4.390625 C 1.710938 -4.390625 1.722656 -4.390625 1.734375 -4.390625 C 1.742188 -4.398438 1.757812 -4.40625 1.78125 -4.40625 C 1.800781 -4.414062 1.820312 -4.421875 1.84375 -4.421875 C 1.875 -4.421875 1.910156 -4.421875 1.953125 -4.421875 C 2.015625 -4.421875 2.0625 -4.414062 2.09375 -4.40625 C 2.132812 -4.40625 2.160156 -4.398438 2.171875 -4.390625 C 2.191406 -4.390625 2.207031 -4.378906 2.21875 -4.359375 C 2.226562 -4.347656 2.234375 -4.335938 2.234375 -4.328125 L 2.234375 -0.46875 L 3.03125 -0.46875 C 3.039062 -0.46875 3.050781 -0.460938 3.0625 -0.453125 C 3.082031 -0.441406 3.097656 -0.425781 3.109375 -0.40625 C 3.117188 -0.382812 3.125 -0.359375 3.125 -0.328125 C 3.132812 -0.304688 3.140625 -0.273438 3.140625 -0.234375 Z M 3.140625 -0.234375 "/>
</symbol>
<symbol overflow="visible" id="glyph1-18">
<path style="stroke:none;" d="M 3.28125 -2.203125 C 3.28125 -1.867188 3.253906 -1.5625 3.203125 -1.28125 C 3.148438 -1 3.0625 -0.757812 2.9375 -0.5625 C 2.8125 -0.363281 2.648438 -0.207031 2.453125 -0.09375 C 2.253906 0.0078125 2.007812 0.0625 1.71875 0.0625 C 1.4375 0.0625 1.203125 0.015625 1.015625 -0.078125 C 0.828125 -0.179688 0.675781 -0.328125 0.5625 -0.515625 C 0.445312 -0.703125 0.363281 -0.9375 0.3125 -1.21875 C 0.269531 -1.5 0.25 -1.820312 0.25 -2.1875 C 0.25 -2.519531 0.273438 -2.828125 0.328125 -3.109375 C 0.378906 -3.390625 0.46875 -3.628906 0.59375 -3.828125 C 0.71875 -4.023438 0.878906 -4.175781 1.078125 -4.28125 C 1.273438 -4.394531 1.519531 -4.453125 1.8125 -4.453125 C 2.082031 -4.453125 2.3125 -4.398438 2.5 -4.296875 C 2.695312 -4.203125 2.851562 -4.0625 2.96875 -3.875 C 3.082031 -3.6875 3.160156 -3.453125 3.203125 -3.171875 C 3.253906 -2.890625 3.28125 -2.566406 3.28125 -2.203125 Z M 2.6875 -2.171875 C 2.6875 -2.390625 2.675781 -2.582031 2.65625 -2.75 C 2.644531 -2.925781 2.625 -3.082031 2.59375 -3.21875 C 2.5625 -3.351562 2.519531 -3.46875 2.46875 -3.5625 C 2.425781 -3.65625 2.367188 -3.734375 2.296875 -3.796875 C 2.234375 -3.859375 2.15625 -3.90625 2.0625 -3.9375 C 1.976562 -3.96875 1.878906 -3.984375 1.765625 -3.984375 C 1.578125 -3.984375 1.421875 -3.9375 1.296875 -3.84375 C 1.179688 -3.75 1.085938 -3.625 1.015625 -3.46875 C 0.953125 -3.3125 0.90625 -3.125 0.875 -2.90625 C 0.851562 -2.695312 0.84375 -2.472656 0.84375 -2.234375 C 0.84375 -1.898438 0.859375 -1.617188 0.890625 -1.390625 C 0.921875 -1.160156 0.972656 -0.972656 1.046875 -0.828125 C 1.128906 -0.679688 1.222656 -0.578125 1.328125 -0.515625 C 1.441406 -0.453125 1.582031 -0.421875 1.75 -0.421875 C 1.875 -0.421875 1.984375 -0.4375 2.078125 -0.46875 C 2.179688 -0.507812 2.265625 -0.566406 2.328125 -0.640625 C 2.398438 -0.722656 2.457031 -0.816406 2.5 -0.921875 C 2.550781 -1.023438 2.585938 -1.140625 2.609375 -1.265625 C 2.640625 -1.398438 2.660156 -1.539062 2.671875 -1.6875 C 2.679688 -1.84375 2.6875 -2.003906 2.6875 -2.171875 Z M 2.6875 -2.171875 "/>
</symbol>
<symbol overflow="visible" id="glyph1-19">
<path style="stroke:none;" d="M 1.21875 -0.359375 C 1.21875 -0.203125 1.191406 -0.0976562 1.140625 -0.046875 C 1.085938 0.00390625 0.992188 0.03125 0.859375 0.03125 C 0.734375 0.03125 0.644531 0.00390625 0.59375 -0.046875 C 0.539062 -0.0976562 0.515625 -0.203125 0.515625 -0.359375 C 0.515625 -0.515625 0.539062 -0.617188 0.59375 -0.671875 C 0.644531 -0.722656 0.738281 -0.75 0.875 -0.75 C 1 -0.75 1.085938 -0.722656 1.140625 -0.671875 C 1.191406 -0.617188 1.21875 -0.515625 1.21875 -0.359375 Z M 2.75 -0.359375 C 2.75 -0.203125 2.722656 -0.0976562 2.671875 -0.046875 C 2.617188 0.00390625 2.523438 0.03125 2.390625 0.03125 C 2.265625 0.03125 2.175781 0.00390625 2.125 -0.046875 C 2.070312 -0.0976562 2.046875 -0.203125 2.046875 -0.359375 C 2.046875 -0.515625 2.070312 -0.617188 2.125 -0.671875 C 2.175781 -0.722656 2.269531 -0.75 2.40625 -0.75 C 2.539062 -0.75 2.628906 -0.722656 2.671875 -0.671875 C 2.722656 -0.617188 2.75 -0.515625 2.75 -0.359375 Z M 4.296875 -0.359375 C 4.296875 -0.203125 4.265625 -0.0976562 4.203125 -0.046875 C 4.148438 0.00390625 4.054688 0.03125 3.921875 0.03125 C 3.796875 0.03125 3.707031 0.00390625 3.65625 -0.046875 C 3.601562 -0.0976562 3.578125 -0.203125 3.578125 -0.359375 C 3.578125 -0.515625 3.601562 -0.617188 3.65625 -0.671875 C 3.707031 -0.722656 3.800781 -0.75 3.9375 -0.75 C 4.070312 -0.75 4.164062 -0.722656 4.21875 -0.671875 C 4.269531 -0.617188 4.296875 -0.515625 4.296875 -0.359375 Z M 4.296875 -0.359375 "/>
</symbol>
<symbol overflow="visible" id="glyph1-20">
<path style="stroke:none;" d="M 2.859375 -0.25 C 2.859375 -0.207031 2.851562 -0.171875 2.84375 -0.140625 C 2.84375 -0.109375 2.835938 -0.0820312 2.828125 -0.0625 C 2.816406 -0.0390625 2.804688 -0.0234375 2.796875 -0.015625 C 2.785156 -0.00390625 2.769531 0 2.75 0 L 0.796875 0 C 0.742188 0 0.691406 -0.015625 0.640625 -0.046875 C 0.597656 -0.0859375 0.578125 -0.148438 0.578125 -0.234375 L 0.578125 -4.3125 C 0.578125 -4.320312 0.582031 -4.332031 0.59375 -4.34375 C 0.601562 -4.363281 0.617188 -4.375 0.640625 -4.375 C 0.660156 -4.382812 0.691406 -4.390625 0.734375 -4.390625 C 0.773438 -4.398438 0.820312 -4.40625 0.875 -4.40625 C 0.925781 -4.40625 0.972656 -4.398438 1.015625 -4.390625 C 1.054688 -4.390625 1.085938 -4.382812 1.109375 -4.375 C 1.128906 -4.375 1.144531 -4.363281 1.15625 -4.34375 C 1.164062 -4.332031 1.171875 -4.320312 1.171875 -4.3125 L 1.171875 -0.5 L 2.75 -0.5 C 2.769531 -0.5 2.785156 -0.492188 2.796875 -0.484375 C 2.804688 -0.472656 2.816406 -0.457031 2.828125 -0.4375 C 2.835938 -0.425781 2.84375 -0.40625 2.84375 -0.375 C 2.851562 -0.34375 2.859375 -0.300781 2.859375 -0.25 Z M 2.859375 -0.25 "/>
</symbol>
<symbol overflow="visible" id="glyph1-21">
<path style="stroke:none;" d="M 1.25 -0.375 C 1.25 -0.207031 1.21875 -0.0976562 1.15625 -0.046875 C 1.101562 0.00390625 1.007812 0.03125 0.875 0.03125 C 0.738281 0.03125 0.644531 0.00390625 0.59375 -0.046875 C 0.539062 -0.0976562 0.515625 -0.203125 0.515625 -0.359375 C 0.515625 -0.515625 0.539062 -0.617188 0.59375 -0.671875 C 0.644531 -0.734375 0.738281 -0.765625 0.875 -0.765625 C 1.019531 -0.765625 1.117188 -0.738281 1.171875 -0.6875 C 1.222656 -0.632812 1.25 -0.53125 1.25 -0.375 Z M 1.25 -0.375 "/>
</symbol>
</g>
<clipPath id="clip1">
  <path d="M 277 268 L 281 268 L 281 272.449219 L 277 272.449219 Z M 277 268 "/>
</clipPath>
<clipPath id="clip2">
  <path d="M 281 268 L 288 268 L 288 272.449219 L 281 272.449219 Z M 281 268 "/>
</clipPath>
<clipPath id="clip3">
  <path d="M 287 272 L 288 272 L 288 272.449219 L 287 272.449219 Z M 287 272 "/>
</clipPath>
<clipPath id="clip4">
  <path d="M 289 269 L 293 269 L 293 272.449219 L 289 272.449219 Z M 289 269 "/>
</clipPath>
<clipPath id="clip5">
  <path d="M 294 267 L 298 267 L 298 272.449219 L 294 272.449219 Z M 294 267 "/>
</clipPath>
<clipPath id="clip6">
  <path d="M 298 268 L 301 268 L 301 272.449219 L 298 272.449219 Z M 298 268 "/>
</clipPath>
<clipPath id="clip7">
  <path d="M 301 272 L 302 272 L 302 272.449219 L 301 272.449219 Z M 301 272 "/>
</clipPath>
<clipPath id="clip8">
  <path d="M 225 273 L 236 273 L 236 278.328125 L 225 278.328125 Z M 225 273 "/>
</clipPath>
<clipPath id="clip9">
  <path d="M 236 273 L 239 273 L 239 278.328125 L 236 278.328125 Z M 236 273 "/>
</clipPath>
<clipPath id="clip10">
  <path d="M 239 274 L 245 274 L 245 278.328125 L 239 278.328125 Z M 239 274 "/>
</clipPath>
<clipPath id="clip11">
  <path d="M 213 216 L 224 216 L 224 222.648438 L 213 222.648438 Z M 213 216 "/>
</clipPath>
<clipPath id="clip12">
  <path d="M 165 215 L 166 215 L 166 215.898438 L 165 215.898438 Z M 165 215 "/>
</clipPath>
<clipPath id="clip13">
  <path d="M 167 210 L 171 210 L 171 215.898438 L 167 215.898438 Z M 167 210 "/>
</clipPath>
<clipPath id="clip14">
  <path d="M 171 210 L 175 210 L 175 215.898438 L 171 215.898438 Z M 171 210 "/>
</clipPath>
<clipPath id="clip15">
  <path d="M 174 210 L 185 210 L 185 215.898438 L 174 215.898438 Z M 174 210 "/>
</clipPath>
<clipPath id="clip16">
  <path d="M 185 210 L 188 210 L 188 215.898438 L 185 215.898438 Z M 185 210 "/>
</clipPath>
<clipPath id="clip17">
  <path d="M 188 215 L 189 215 L 189 215.898438 L 188 215.898438 Z M 188 215 "/>
</clipPath>
<clipPath id="clip18">
  <path d="M 131 201 L 134 201 L 134 206.179688 L 131 206.179688 Z M 131 201 "/>
</clipPath>
<clipPath id="clip19">
  <path d="M 134 201 L 138 201 L 138 206.179688 L 134 206.179688 Z M 134 201 "/>
</clipPath>
<clipPath id="clip20">
  <path d="M 137 206 L 138 206 L 138 206.179688 L 137 206.179688 Z M 137 206 "/>
</clipPath>
<clipPath id="clip21">
  <path d="M 139 201 L 148 201 L 148 206.179688 L 139 206.179688 Z M 139 201 "/>
</clipPath>
<clipPath id="clip22">
  <path d="M 148 201 L 151 201 L 151 206.179688 L 148 206.179688 Z M 148 201 "/>
</clipPath>
<clipPath id="clip23">
  <path d="M 151 206 L 152 206 L 152 206.179688 L 151 206.179688 Z M 151 206 "/>
</clipPath>
</defs>
<g id="surface1">
<g style="fill:rgb(0%,0%,0%);fill-opacity:1;">
  <use xlink:href="#glyph0-1" x="85.104" y="81.26"/>
</g>
<g style="fill:rgb(0%,0%,0%);fill-opacity:1;">
  <use xlink:href="#glyph0-1" x="85.104" y="103.82"/>
</g>
<g style="fill:rgb(0%,0%,0%);fill-opacity:1;">
  <use xlink:href="#glyph0-1" x="85.104" y="126.26"/>
</g>
<g style="fill:rgb(0%,0%,0%);fill-opacity:1;">
  <use xlink:href="#glyph0-1" x="85.104" y="148.82"/>
</g>
<g style="fill:rgb(0%,0%,0%);fill-opacity:1;">
  <use xlink:href="#glyph0-1" x="85.104" y="171.26"/>
</g>
<g style="fill:rgb(0%,0%,0%);fill-opacity:1;">
  <use xlink:href="#glyph0-1" x="85.104" y="193.82"/>
</g>
<g style="fill:rgb(0%,0%,0%);fill-opacity:1;">
  <use xlink:href="#glyph0-1" x="85.104" y="216.26"/>
</g>
<g style="fill:rgb(0%,0%,0%);fill-opacity:1;">
  <use xlink:href="#glyph0-1" x="85.104" y="238.73"/>
</g>
<g style="fill:rgb(0%,0%,0%);fill-opacity:1;">
  <use xlink:href="#glyph0-1" x="85.104" y="261.29"/>
</g>
<path style="fill-rule:evenodd;fill:rgb(100%,100%,100%);fill-opacity:1;stroke-width:0.5;stroke-linecap:butt;stroke-linejoin:round;stroke:rgb(100%,100%,100%);stroke-opacity:1;stroke-miterlimit:10;" d="M 269.550781 515.710938 L 316.800781 515.710938 L 316.800781 529.960938 L 269.550781 529.960938 Z M 269.550781 515.710938 " transform="matrix(1,0,0,-1,0,792)"/>
<g clip-path="url(#clip1)" clip-rule="nonzero">
<g style="fill:rgb(0%,0%,0%);fill-opacity:1;">
  <use xlink:href="#glyph1-1" x="277.01" y="272.69"/>
</g>
</g>
<g clip-path="url(#clip2)" clip-rule="nonzero">
<g style="fill:rgb(0%,0%,0%);fill-opacity:1;">
  <use xlink:href="#glyph1-2" x="280.85" y="272.69"/>
  <use xlink:href="#glyph1-3" x="284.33002" y="272.69"/>
</g>
</g>
<g clip-path="url(#clip3)" clip-rule="nonzero">
<g style="fill:rgb(0%,0%,0%);fill-opacity:1;">
  <use xlink:href="#glyph1-4" x="287.83" y="272.69"/>
</g>
</g>
<g clip-path="url(#clip4)" clip-rule="nonzero">
<g style="fill:rgb(0%,0%,0%);fill-opacity:1;">
  <use xlink:href="#glyph1-5" x="289.39" y="272.69"/>
  <use xlink:href="#glyph1-4" x="292.85608" y="272.69"/>
</g>
</g>
<g clip-path="url(#clip5)" clip-rule="nonzero">
<g style="fill:rgb(0%,0%,0%);fill-opacity:1;">
  <use xlink:href="#glyph1-6" x="294.5404" y="272.69"/>
</g>
</g>
<g clip-path="url(#clip6)" clip-rule="nonzero">
<g style="fill:rgb(0%,0%,0%);fill-opacity:1;">
  <use xlink:href="#glyph1-7" x="298.0204" y="272.69"/>
</g>
</g>
<g clip-path="url(#clip7)" clip-rule="nonzero">
<g style="fill:rgb(0%,0%,0%);fill-opacity:1;">
  <use xlink:href="#glyph1-4" x="301.39" y="272.69"/>
</g>
</g>
<path style="fill-rule:evenodd;fill:rgb(100%,100%,100%);fill-opacity:1;stroke-width:0.5;stroke-linecap:butt;stroke-linejoin:round;stroke:rgb(100%,100%,100%);stroke-opacity:1;stroke-miterlimit:10;" d="M 285 496.910156 L 305.25 496.910156 L 305.25 513.410156 L 285 513.410156 Z M 285 496.910156 " transform="matrix(1,0,0,-1,0,792)"/>
<g style="fill:rgb(0%,0%,0%);fill-opacity:1;">
  <use xlink:href="#glyph1-8" x="292.51" y="289.25"/>
  <use xlink:href="#glyph1-8" x="294.67" y="289.25"/>
</g>
<g style="fill:rgb(0%,0%,0%);fill-opacity:1;">
  <use xlink:href="#glyph1-4" x="296.83" y="289.25"/>
</g>
<path style="fill-rule:evenodd;fill:rgb(100%,100%,100%);fill-opacity:1;stroke-width:0.5;stroke-linecap:butt;stroke-linejoin:round;stroke:rgb(100%,100%,100%);stroke-opacity:1;stroke-miterlimit:10;" d="M 247 527.761719 L 299.5 527.761719 L 299.5 551.761719 L 247 551.761719 Z M 247 527.761719 " transform="matrix(1,0,0,-1,0,792)"/>
<g style="fill:rgb(0%,0%,0%);fill-opacity:1;">
  <use xlink:href="#glyph1-4" x="254.45" y="250.85"/>
</g>
<path style="fill-rule:evenodd;fill:rgb(100%,100%,100%);fill-opacity:1;stroke-width:0.5;stroke-linecap:butt;stroke-linejoin:round;stroke:rgb(100%,100%,100%);stroke-opacity:1;stroke-miterlimit:10;" d="M 214.5 509.910156 L 273 509.910156 L 273 533.910156 L 214.5 533.910156 Z M 214.5 509.910156 " transform="matrix(1,0,0,-1,0,792)"/>
<g style="fill:rgb(0%,0%,0%);fill-opacity:1;">
  <use xlink:href="#glyph1-9" x="222.05" y="268.73"/>
</g>
<g style="fill:rgb(0%,0%,0%);fill-opacity:1;">
  <use xlink:href="#glyph1-4" x="223.60904" y="268.73"/>
  <use xlink:href="#glyph1-5" x="225.182" y="268.73"/>
  <use xlink:href="#glyph1-4" x="228.64808" y="268.73"/>
  <use xlink:href="#glyph1-2" x="230.22104" y="268.73"/>
</g>
<g style="fill:rgb(0%,0%,0%);fill-opacity:1;">
  <use xlink:href="#glyph1-2" x="233.81" y="268.73"/>
</g>
<g style="fill:rgb(0%,0%,0%);fill-opacity:1;">
  <use xlink:href="#glyph1-10" x="237.29" y="268.73"/>
</g>
<g style="fill:rgb(0%,0%,0%);fill-opacity:1;">
  <use xlink:href="#glyph1-4" x="242.32208" y="268.73"/>
</g>
<g style="fill:rgb(0%,0%,0%);fill-opacity:1;">
  <use xlink:href="#glyph1-11" x="243.89" y="268.73"/>
</g>
<g style="fill:rgb(0%,0%,0%);fill-opacity:1;">
  <use xlink:href="#glyph1-12" x="247.59968" y="268.73"/>
</g>
<g style="fill:rgb(0%,0%,0%);fill-opacity:1;">
  <use xlink:href="#glyph1-13" x="250.9544" y="268.73"/>
</g>
<g style="fill:rgb(0%,0%,0%);fill-opacity:1;">
  <use xlink:href="#glyph1-14" x="256.47368" y="268.73"/>
</g>
<g style="fill:rgb(0%,0%,0%);fill-opacity:1;">
  <use xlink:href="#glyph1-4" x="259.73" y="268.73"/>
</g>
<g style="fill:rgb(0%,0%,0%);fill-opacity:1;">
  <use xlink:href="#glyph1-11" x="222.05" y="277.97"/>
</g>
<g clip-path="url(#clip8)" clip-rule="nonzero">
<g style="fill:rgb(0%,0%,0%);fill-opacity:1;">
  <use xlink:href="#glyph1-4" x="225.75968" y="277.97"/>
  <use xlink:href="#glyph1-5" x="227.33264" y="277.97"/>
  <use xlink:href="#glyph1-4" x="230.79872" y="277.97"/>
  <use xlink:href="#glyph1-2" x="232.37168" y="277.97"/>
</g>
</g>
<g clip-path="url(#clip9)" clip-rule="nonzero">
<g style="fill:rgb(0%,0%,0%);fill-opacity:1;">
  <use xlink:href="#glyph1-2" x="235.83776" y="277.97"/>
</g>
</g>
<g clip-path="url(#clip10)" clip-rule="nonzero">
<g style="fill:rgb(0%,0%,0%);fill-opacity:1;">
  <use xlink:href="#glyph1-4" x="239.31776" y="277.97"/>
  <use xlink:href="#glyph1-15" x="240.89072" y="277.97"/>
</g>
</g>
<g style="fill:rgb(0%,0%,0%);fill-opacity:1;">
  <use xlink:href="#glyph1-13" x="244.71176" y="277.97"/>
</g>
<g style="fill:rgb(0%,0%,0%);fill-opacity:1;">
  <use xlink:href="#glyph1-14" x="250.23104" y="277.97"/>
</g>
<g style="fill:rgb(0%,0%,0%);fill-opacity:1;">
  <use xlink:href="#glyph1-4" x="253.49" y="277.97"/>
</g>
<path style="fill-rule:evenodd;fill:rgb(100%,100%,100%);fill-opacity:1;stroke-width:0.5;stroke-linecap:butt;stroke-linejoin:round;stroke:rgb(100%,100%,100%);stroke-opacity:1;stroke-miterlimit:10;" d="M 238.75 563.761719 L 299.5 563.761719 L 299.5 580.261719 L 238.75 580.261719 Z M 238.75 563.761719 " transform="matrix(1,0,0,-1,0,792)"/>
<g style="fill:rgb(0%,0%,0%);fill-opacity:1;">
  <use xlink:href="#glyph1-4" x="246.29" y="222.41"/>
</g>
<path style="fill-rule:evenodd;fill:rgb(100%,100%,100%);fill-opacity:1;stroke-width:0.5;stroke-linecap:butt;stroke-linejoin:round;stroke:rgb(100%,100%,100%);stroke-opacity:1;stroke-miterlimit:10;" d="M 198.699219 565.511719 L 245.949219 565.511719 L 245.949219 581.261719 L 198.699219 581.261719 Z M 198.699219 565.511719 " transform="matrix(1,0,0,-1,0,792)"/>
<g style="fill:rgb(0%,0%,0%);fill-opacity:1;">
  <use xlink:href="#glyph1-1" x="206.21" y="221.33"/>
</g>
<g style="fill:rgb(0%,0%,0%);fill-opacity:1;">
  <use xlink:href="#glyph1-2" x="210.04496" y="221.33"/>
</g>
<g clip-path="url(#clip11)" clip-rule="nonzero">
<g style="fill:rgb(0%,0%,0%);fill-opacity:1;">
  <use xlink:href="#glyph1-4" x="213.52496" y="221.33"/>
  <use xlink:href="#glyph1-5" x="215.09792" y="221.33"/>
  <use xlink:href="#glyph1-4" x="218.564" y="221.33"/>
  <use xlink:href="#glyph1-6" x="220.13696" y="221.33"/>
</g>
</g>
<g style="fill:rgb(0%,0%,0%);fill-opacity:1;">
  <use xlink:href="#glyph1-7" x="223.60304" y="221.33"/>
</g>
<g style="fill:rgb(0%,0%,0%);fill-opacity:1;">
  <use xlink:href="#glyph1-4" x="226.97" y="221.33"/>
</g>
<path style="fill-rule:evenodd;fill:rgb(100%,100%,100%);fill-opacity:1;stroke-width:0.5;stroke-linecap:butt;stroke-linejoin:round;stroke:rgb(100%,100%,100%);stroke-opacity:1;stroke-miterlimit:10;" d="M 158.25 572.300781 L 201 572.300781 L 201 587.300781 L 158.25 587.300781 Z M 158.25 572.300781 " transform="matrix(1,0,0,-1,0,792)"/>
<g clip-path="url(#clip12)" clip-rule="nonzero">
<g style="fill:rgb(0%,0%,0%);fill-opacity:1;">
  <use xlink:href="#glyph1-4" x="165.74" y="215.3"/>
</g>
</g>
<g clip-path="url(#clip13)" clip-rule="nonzero">
<g style="fill:rgb(0%,0%,0%);fill-opacity:1;">
  <use xlink:href="#glyph1-1" x="167.3" y="215.3"/>
</g>
</g>
<g clip-path="url(#clip14)" clip-rule="nonzero">
<g style="fill:rgb(0%,0%,0%);fill-opacity:1;">
  <use xlink:href="#glyph1-16" x="171.13496" y="215.3"/>
</g>
</g>
<g clip-path="url(#clip15)" clip-rule="nonzero">
<g style="fill:rgb(0%,0%,0%);fill-opacity:1;">
  <use xlink:href="#glyph1-4" x="174.61496" y="215.3"/>
  <use xlink:href="#glyph1-5" x="176.18792" y="215.3"/>
  <use xlink:href="#glyph1-4" x="179.654" y="215.3"/>
  <use xlink:href="#glyph1-6" x="181.22696" y="215.3"/>
</g>
</g>
<g clip-path="url(#clip16)" clip-rule="nonzero">
<g style="fill:rgb(0%,0%,0%);fill-opacity:1;">
  <use xlink:href="#glyph1-7" x="184.69304" y="215.3"/>
</g>
</g>
<g clip-path="url(#clip17)" clip-rule="nonzero">
<g style="fill:rgb(0%,0%,0%);fill-opacity:1;">
  <use xlink:href="#glyph1-4" x="188.09" y="215.3"/>
</g>
</g>
<path style="fill-rule:evenodd;fill:rgb(100%,100%,100%);fill-opacity:1;stroke-width:0.5;stroke-linecap:butt;stroke-linejoin:round;stroke:rgb(100%,100%,100%);stroke-opacity:1;stroke-miterlimit:10;" d="M 123 582.050781 L 170.25 582.050781 L 170.25 596.300781 L 123 596.300781 Z M 123 582.050781 " transform="matrix(1,0,0,-1,0,792)"/>
<g clip-path="url(#clip18)" clip-rule="nonzero">
<g style="fill:rgb(0%,0%,0%);fill-opacity:1;">
  <use xlink:href="#glyph1-1" x="130.46" y="206.3"/>
</g>
</g>
<g clip-path="url(#clip19)" clip-rule="nonzero">
<g style="fill:rgb(0%,0%,0%);fill-opacity:1;">
  <use xlink:href="#glyph1-17" x="134.29496" y="206.3"/>
</g>
</g>
<g clip-path="url(#clip20)" clip-rule="nonzero">
<g style="fill:rgb(0%,0%,0%);fill-opacity:1;">
  <use xlink:href="#glyph1-4" x="137.77496" y="206.3"/>
</g>
</g>
<g clip-path="url(#clip21)" clip-rule="nonzero">
<g style="fill:rgb(0%,0%,0%);fill-opacity:1;">
  <use xlink:href="#glyph1-5" x="139.34" y="206.3"/>
  <use xlink:href="#glyph1-4" x="142.80608" y="206.3"/>
  <use xlink:href="#glyph1-6" x="144.37904" y="206.3"/>
</g>
</g>
<g clip-path="url(#clip22)" clip-rule="nonzero">
<g style="fill:rgb(0%,0%,0%);fill-opacity:1;">
  <use xlink:href="#glyph1-7" x="147.85904" y="206.3"/>
</g>
</g>
<g clip-path="url(#clip23)" clip-rule="nonzero">
<g style="fill:rgb(0%,0%,0%);fill-opacity:1;">
  <use xlink:href="#glyph1-4" x="151.22" y="206.3"/>
</g>
</g>
<path style="fill-rule:evenodd;fill:rgb(100%,100%,100%);fill-opacity:1;stroke-width:0.5;stroke-linecap:butt;stroke-linejoin:round;stroke:rgb(100%,100%,100%);stroke-opacity:1;stroke-miterlimit:10;" d="M 245.25 654.058594 L 388.5 654.058594 L 388.5 697.558594 L 245.25 697.558594 Z M 245.25 654.058594 " transform="matrix(1,0,0,-1,0,792)"/>
<g style="fill:rgb(0%,0%,0%);fill-opacity:1;">
  <use xlink:href="#glyph1-4" x="252.77" y="105.02"/>
</g>
<path style="fill-rule:evenodd;fill:rgb(100%,100%,100%);fill-opacity:1;stroke-width:0.5;stroke-linecap:butt;stroke-linejoin:round;stroke:rgb(100%,100%,100%);stroke-opacity:1;stroke-miterlimit:10;" d="M 85.050781 664.410156 L 172.800781 664.410156 L 172.800781 688.410156 L 85.050781 688.410156 Z M 85.050781 664.410156 " transform="matrix(1,0,0,-1,0,792)"/>
<g style="fill:rgb(0%,0%,0%);fill-opacity:1;">
  <use xlink:href="#glyph1-4" x="92.544" y="114.14"/>
</g>
<path style=" stroke:none;fill-rule:nonzero;fill:rgb(100%,0%,0%);fill-opacity:1;" d="M 96.753906 167.011719 L 306.25 170.480469 L 306.25 170.980469 L 96.746094 167.511719 Z M 305.300781 167.710938 L 311.25 170.808594 L 305.199219 173.710938 Z M 305.300781 167.710938 "/>
<path style="fill-rule:evenodd;fill:rgb(100%,100%,100%);fill-opacity:1;stroke-width:0.5;stroke-linecap:butt;stroke-linejoin:round;stroke:rgb(100%,100%,100%);stroke-opacity:1;stroke-miterlimit:10;" d="M 99.75 625.480469 L 351 625.480469 L 351 641.980469 L 99.75 641.980469 Z M 99.75 625.480469 " transform="matrix(1,0,0,-1,0,792)"/>
<g style="fill:rgb(0%,0%,0%);fill-opacity:1;">
  <use xlink:href="#glyph1-18" x="107.18" y="160.58"/>
</g>
<g style="fill:rgb(0%,0%,0%);fill-opacity:1;">
  <use xlink:href="#glyph1-4" x="110.78" y="160.58"/>
</g>
<g style="fill:rgb(0%,0%,0%);fill-opacity:1;">
  <use xlink:href="#glyph1-17" x="142.58" y="160.58"/>
</g>
<g style="fill:rgb(0%,0%,0%);fill-opacity:1;">
  <use xlink:href="#glyph1-4" x="146.18" y="160.58"/>
</g>
<g style="fill:rgb(0%,0%,0%);fill-opacity:1;">
  <use xlink:href="#glyph1-16" x="178.01" y="160.58"/>
</g>
<g style="fill:rgb(0%,0%,0%);fill-opacity:1;">
  <use xlink:href="#glyph1-4" x="181.61" y="160.58"/>
</g>
<g style="fill:rgb(0%,0%,0%);fill-opacity:1;">
  <use xlink:href="#glyph1-2" x="213.41" y="160.58"/>
</g>
<g style="fill:rgb(0%,0%,0%);fill-opacity:1;">
  <use xlink:href="#glyph1-19" x="216.89" y="160.58"/>
</g>
<g style="fill:rgb(0%,0%,0%);fill-opacity:1;">
  <use xlink:href="#glyph1-4" x="221.81" y="160.58"/>
</g>
<g style="fill:rgb(0%,0%,0%);fill-opacity:1;">
  <use xlink:href="#glyph1-4" x="248.81" y="160.58"/>
</g>
<g style="fill:rgb(0%,0%,0%);fill-opacity:1;">
  <use xlink:href="#glyph1-19" x="284.21" y="160.58"/>
</g>
<g style="fill:rgb(0%,0%,0%);fill-opacity:1;">
  <use xlink:href="#glyph1-2" x="289.03" y="160.58"/>
</g>
<g style="fill:rgb(0%,0%,0%);fill-opacity:1;">
  <use xlink:href="#glyph1-3" x="292.51" y="160.58"/>
</g>
<g style="fill:rgb(0%,0%,0%);fill-opacity:1;">
  <use xlink:href="#glyph1-4" x="296.11" y="160.58"/>
</g>
<path style="fill:none;stroke-width:0.75;stroke-linecap:butt;stroke-linejoin:round;stroke:rgb(100%,0%,0%);stroke-opacity:1;stroke-dasharray:3,2.25;stroke-miterlimit:10;" d="M 277.121094 507.789062 C 252.441406 498.539062 225.050781 511.359375 215.949219 536.421875 C 211.421875 548.871094 212.128906 562.660156 217.910156 574.558594 " transform="matrix(1,0,0,-1,0,792)"/>
<path style=" stroke:none;fill-rule:nonzero;fill:rgb(0%,0%,0%);fill-opacity:1;" d="M 288.5 171.761719 L 287.78125 277.761719 L 288.28125 277.761719 L 289 171.761719 Z M 285.039062 276.738281 L 288 282.761719 L 291.039062 276.78125 Z M 285.039062 276.738281 "/>
<path style="fill-rule:evenodd;fill:rgb(100%,0%,0%);fill-opacity:1;stroke-width:1;stroke-linecap:butt;stroke-linejoin:miter;stroke:rgb(100%,0%,0%);stroke-opacity:1;stroke-miterlimit:8;" d="M 276.828125 509.640625 L 280.011719 512.101562 L 280.25 508.089844 Z M 276.828125 509.640625 " transform="matrix(1,0,0,-1,0,792)"/>
<path style="fill:none;stroke-width:0.75;stroke-linecap:butt;stroke-linejoin:round;stroke:rgb(26.699829%,44.699097%,76.899719%);stroke-opacity:1;stroke-dasharray:3,2.25;stroke-miterlimit:10;" d="M 288.75 630.738281 L 288.75 500.238281 " transform="matrix(1,0,0,-1,0,792)"/>
<path style="fill-rule:evenodd;fill:rgb(100%,100%,100%);fill-opacity:1;stroke-width:0.5;stroke-linecap:butt;stroke-linejoin:round;stroke:rgb(100%,100%,100%);stroke-opacity:1;stroke-miterlimit:10;" d="M 315.75 611.988281 L 365.25 611.988281 L 365.25 629.238281 L 315.75 629.238281 Z M 315.75 611.988281 " transform="matrix(1,0,0,-1,0,792)"/>
<g style="fill:rgb(0%,0%,0%);fill-opacity:1;">
  <use xlink:href="#glyph1-15" x="323.23" y="173.3"/>
  <use xlink:href="#glyph1-13" x="326.95" y="173.3"/>
</g>
<g style="fill:rgb(0%,0%,0%);fill-opacity:1;">
  <use xlink:href="#glyph1-14" x="332.47" y="173.3"/>
</g>
<g style="fill:rgb(0%,0%,0%);fill-opacity:1;">
  <use xlink:href="#glyph1-4" x="335.71" y="173.3"/>
</g>
<path style=" stroke:none;fill-rule:nonzero;fill:rgb(0%,0%,0%);fill-opacity:1;" d="M 291.25 152.351562 L 291.910156 113.839844 L 291.410156 113.839844 L 290.75 152.339844 Z M 294.648438 114.890625 L 291.75 108.839844 L 288.648438 114.789062 Z M 294.648438 114.890625 "/>
<path style="fill-rule:evenodd;fill:rgb(100%,100%,100%);fill-opacity:1;stroke-width:0.5;stroke-linecap:butt;stroke-linejoin:round;stroke:rgb(100%,100%,100%);stroke-opacity:1;stroke-miterlimit:10;" d="M 109.5 648.660156 L 177 648.660156 L 177 679.410156 L 109.5 679.410156 Z M 109.5 648.660156 " transform="matrix(1,0,0,-1,0,792)"/>
<g style="fill:rgb(0%,0%,0%);fill-opacity:1;">
  <use xlink:href="#glyph1-9" x="117.02" y="123.14"/>
</g>
<g style="fill:rgb(0%,0%,0%);fill-opacity:1;">
  <use xlink:href="#glyph1-4" x="118.57904" y="123.14"/>
  <use xlink:href="#glyph1-5" x="120.152" y="123.14"/>
  <use xlink:href="#glyph1-4" x="123.61808" y="123.14"/>
  <use xlink:href="#glyph1-2" x="125.19104" y="123.14"/>
</g>
<g style="fill:rgb(0%,0%,0%);fill-opacity:1;">
  <use xlink:href="#glyph1-2" x="128.77544" y="123.14"/>
</g>
<g style="fill:rgb(0%,0%,0%);fill-opacity:1;">
  <use xlink:href="#glyph1-10" x="132.25544" y="123.14"/>
</g>
<g style="fill:rgb(0%,0%,0%);fill-opacity:1;">
  <use xlink:href="#glyph1-4" x="137.28752" y="123.14"/>
  <use xlink:href="#glyph1-11" x="138.86048" y="123.14"/>
</g>
<g style="fill:rgb(0%,0%,0%);fill-opacity:1;">
  <use xlink:href="#glyph1-12" x="142.5632" y="123.14"/>
</g>
<g style="fill:rgb(0%,0%,0%);fill-opacity:1;">
  <use xlink:href="#glyph1-13" x="145.91792" y="123.14"/>
</g>
<g style="fill:rgb(0%,0%,0%);fill-opacity:1;">
  <use xlink:href="#glyph1-14" x="151.4372" y="123.14"/>
</g>
<g style="fill:rgb(0%,0%,0%);fill-opacity:1;">
  <use xlink:href="#glyph1-4" x="154.7" y="123.14"/>
</g>
<g style="fill:rgb(0%,0%,0%);fill-opacity:1;">
  <use xlink:href="#glyph1-20" x="117.02" y="132.38"/>
</g>
<g style="fill:rgb(0%,0%,0%);fill-opacity:1;">
  <use xlink:href="#glyph1-4" x="119.90144" y="132.38"/>
  <use xlink:href="#glyph1-5" x="121.4744" y="132.38"/>
  <use xlink:href="#glyph1-4" x="124.94048" y="132.38"/>
</g>
<g style="fill:rgb(0%,0%,0%);fill-opacity:1;">
  <use xlink:href="#glyph1-6" x="126.61784" y="132.38"/>
</g>
<g style="fill:rgb(0%,0%,0%);fill-opacity:1;">
  <use xlink:href="#glyph1-16" x="130.09784" y="132.38"/>
</g>
<g style="fill:rgb(0%,0%,0%);fill-opacity:1;">
  <use xlink:href="#glyph1-21" x="133.57784" y="132.38"/>
</g>
<g style="fill:rgb(0%,0%,0%);fill-opacity:1;">
  <use xlink:href="#glyph1-18" x="135.37352" y="132.38"/>
</g>
<g style="fill:rgb(0%,0%,0%);fill-opacity:1;">
  <use xlink:href="#glyph1-18" x="138.96488" y="132.38"/>
</g>
<g style="fill:rgb(0%,0%,0%);fill-opacity:1;">
  <use xlink:href="#glyph1-18" x="142.55624" y="132.38"/>
</g>
<g style="fill:rgb(0%,0%,0%);fill-opacity:1;">
  <use xlink:href="#glyph1-4" x="146.18" y="132.38"/>
</g>
<path style=" stroke:none;fill-rule:nonzero;fill:rgb(0%,0%,0%);fill-opacity:1;" d="M 143.5 167.308594 L 143.5 189.308594 L 143 189.308594 L 143 167.308594 Z M 146.25 188.308594 L 143.25 194.308594 L 140.25 188.308594 Z M 146.25 188.308594 "/>
<path style="fill:none;stroke-width:0.5;stroke-linecap:butt;stroke-linejoin:miter;stroke:rgb(0%,0%,0%);stroke-opacity:1;stroke-miterlimit:8;" d="M 143.25 599.199219 L 213.75 574.449219 " transform="matrix(1,0,0,-1,0,792)"/>
<path style=" stroke:none;fill-rule:nonzero;fill:rgb(0%,0%,0%);fill-opacity:1;" d="M 178.25 168.808594 L 177.601562 201.308594 L 178.101562 201.320312 L 178.75 168.820312 Z M 174.871094 200.25 L 177.75 206.308594 L 180.871094 200.371094 Z M 174.871094 200.25 "/>
<path style=" stroke:none;fill-rule:nonzero;fill:rgb(0%,0%,0%);fill-opacity:1;" d="M 217.75 169.558594 L 217.75 212.558594 L 217.25 212.558594 L 217.25 169.558594 Z M 220.5 211.558594 L 217.5 217.558594 L 214.5 211.558594 Z M 220.5 211.558594 "/>
</g>
</svg>
